{
  "modid": "",
  "uniqueName": "Craft_To_The_Future__The_Features",
  "saveName": "Craft_To_The_Future__The_Features",
  "displayName": "Craft To The Future: The Features",
  "displayInfo": "",
  "colorHex": "FFFFFFFF",
  "language": "en_us",
  "hasCustomIcon": true,
  "showBackground": true,
  "legacyTexture": false,
  "backgroundResource": "enchiridion:textures/books/rustic2.png",
  "BACKGROUND_START_X": -10,
  "BACKGROUND_START_Y": -10,
  "BACKGROUND_END_X": 440,
  "BACKGROUND_END_Y": 240,
  "defaultPage": 0,
  "isLocked": false,
  "forgetPageOnClose": false,
  "book": [
    {
      "features": [
        {
          "xPos": 235,
          "yPos": 45,
          "width": 18.0,
          "height": 10.0,
          "feature": {
            "class": "joshie.enchiridion.gui.book.features.FeatureButton",
            "properties": {
              "action": {
                "class": "joshie.enchiridion.gui.book.buttons.actions.ActionJumpPage",
                "properties": {
                  "bookID": "Craft_To_The_Future__The_Features",
                  "pageNumber": 1
                }
              },
              "size": 1.0,
              "leftClick": true,
              "rightClick": true,
              "otherClick": false,
              "tooltip": "",
              "hoverText": "",
              "hoverXOffset": 0,
              "hoverYOffset": 0,
              "unhoveredText": "",
              "unhoveredXOffset": 0,
              "unhoveredYOffset": 0,
              "hoveredResource": "enchiridion:textures/books/arrow_left_on.png",
              "unhoveredResource": "enchiridion:textures/books/arrow_left_off.png"
            }
          },
          "isLocked": false,
          "isHidden": false,
          "layerIndex": 0
        },
        {
          "xPos": 276,
          "yPos": 33,
          "width": 85.0,
          "height": 12.0,
          "feature": {
            "class": "joshie.enchiridion.gui.book.features.FeatureText",
            "properties": {
              "text": "Click the arrows.",
              "size": 1.0
            }
          },
          "isLocked": false,
          "isHidden": false,
          "layerIndex": 1
        },
        {
          "xPos": 234,
          "yPos": 18,
          "width": 171.0,
          "height": 15.0,
          "feature": {
            "class": "joshie.enchiridion.gui.book.features.FeatureImage",
            "properties": {
              "path": "enchiridion:images/Craft_To_The_Future__The_Features/contents.png"
            }
          },
          "isLocked": false,
          "isHidden": false,
          "layerIndex": 2
        },
        {
          "xPos": 235,
          "yPos": 61,
          "width": 18.0,
          "height": 10.0,
          "feature": {
            "class": "joshie.enchiridion.gui.book.features.FeatureButton",
            "properties": {
              "action": {
                "class": "joshie.enchiridion.gui.book.buttons.actions.ActionJumpPage",
                "properties": {
                  "bookID": "Craft_To_The_Future__The_Features",
                  "pageNumber": 2
                }
              },
              "size": 1.0,
              "leftClick": true,
              "rightClick": true,
              "otherClick": false,
              "tooltip": "",
              "hoverText": "",
              "hoverXOffset": 0,
              "hoverYOffset": 0,
              "unhoveredText": "",
              "unhoveredXOffset": 0,
              "unhoveredYOffset": 0,
              "hoveredResource": "enchiridion:textures/books/arrow_left_on.png",
              "unhoveredResource": "enchiridion:textures/books/arrow_left_off.png"
            }
          },
          "isLocked": false,
          "isHidden": false,
          "layerIndex": 3
        },
        {
          "xPos": 236,
          "yPos": 78,
          "width": 18.0,
          "height": 10.0,
          "feature": {
            "class": "joshie.enchiridion.gui.book.features.FeatureButton",
            "properties": {
              "action": {
                "class": "joshie.enchiridion.gui.book.buttons.actions.ActionJumpPage",
                "properties": {
                  "bookID": "Craft_To_The_Future__The_Features",
                  "pageNumber": 3
                }
              },
              "size": 1.0,
              "leftClick": true,
              "rightClick": true,
              "otherClick": false,
              "tooltip": "",
              "hoverText": "",
              "hoverXOffset": 0,
              "hoverYOffset": 0,
              "unhoveredText": "",
              "unhoveredXOffset": 0,
              "unhoveredYOffset": 0,
              "hoveredResource": "enchiridion:textures/books/arrow_left_on.png",
              "unhoveredResource": "enchiridion:textures/books/arrow_left_off.png"
            }
          },
          "isLocked": false,
          "isHidden": false,
          "layerIndex": 4
        },
        {
          "xPos": 235,
          "yPos": 94,
          "width": 18.0,
          "height": 10.0,
          "feature": {
            "class": "joshie.enchiridion.gui.book.features.FeatureButton",
            "properties": {
              "action": {
                "class": "joshie.enchiridion.gui.book.buttons.actions.ActionJumpPage",
                "properties": {
                  "bookID": "Craft_To_The_Future__The_Features",
                  "pageNumber": 4
                }
              },
              "size": 1.0,
              "leftClick": true,
              "rightClick": true,
              "otherClick": false,
              "tooltip": "",
              "hoverText": "",
              "hoverXOffset": 0,
              "hoverYOffset": 0,
              "unhoveredText": "",
              "unhoveredXOffset": 0,
              "unhoveredYOffset": 0,
              "hoveredResource": "enchiridion:textures/books/arrow_left_on.png",
              "unhoveredResource": "enchiridion:textures/books/arrow_left_off.png"
            }
          },
          "isLocked": false,
          "isHidden": false,
          "layerIndex": 5
        },
        {
          "xPos": 236,
          "yPos": 110,
          "width": 18.0,
          "height": 10.0,
          "feature": {
            "class": "joshie.enchiridion.gui.book.features.FeatureButton",
            "properties": {
              "action": {
                "class": "joshie.enchiridion.gui.book.buttons.actions.ActionJumpPage",
                "properties": {
                  "bookID": "Craft_To_The_Future__The_Features",
                  "pageNumber": 5
                }
              },
              "size": 1.0,
              "leftClick": true,
              "rightClick": true,
              "otherClick": false,
              "tooltip": "",
              "hoverText": "",
              "hoverXOffset": 0,
              "hoverYOffset": 0,
              "unhoveredText": "",
              "unhoveredXOffset": 0,
              "unhoveredYOffset": 0,
              "hoveredResource": "enchiridion:textures/books/arrow_left_on.png",
              "unhoveredResource": "enchiridion:textures/books/arrow_left_off.png"
            }
          },
          "isLocked": false,
          "isHidden": false,
          "layerIndex": 6
        },
        {
          "xPos": 236,
          "yPos": 126,
          "width": 18.0,
          "height": 10.0,
          "feature": {
            "class": "joshie.enchiridion.gui.book.features.FeatureButton",
            "properties": {
              "action": {
                "class": "joshie.enchiridion.gui.book.buttons.actions.ActionJumpPage",
                "properties": {
                  "bookID": "Craft_To_The_Future__The_Features",
                  "pageNumber": 7
                }
              },
              "size": 1.0,
              "leftClick": true,
              "rightClick": true,
              "otherClick": false,
              "tooltip": "",
              "hoverText": "",
              "hoverXOffset": 0,
              "hoverYOffset": 0,
              "unhoveredText": "",
              "unhoveredXOffset": 0,
              "unhoveredYOffset": 0,
              "hoveredResource": "enchiridion:textures/books/arrow_left_on.png",
              "unhoveredResource": "enchiridion:textures/books/arrow_left_off.png"
            }
          },
          "isLocked": false,
          "isHidden": false,
          "layerIndex": 7
        },
        {
          "xPos": 258,
          "yPos": 46,
          "width": 138.0,
          "height": 9.0,
          "feature": {
            "class": "joshie.enchiridion.gui.book.features.FeatureText",
            "properties": {
              "text": "The Story So Far",
              "size": 1.0
            }
          },
          "isLocked": false,
          "isHidden": false,
          "layerIndex": 8
        },
        {
          "xPos": 258,
          "yPos": 79,
          "width": 70.0,
          "height": 15.0,
          "feature": {
            "class": "joshie.enchiridion.gui.book.features.FeatureText",
            "properties": {
              "text": "The Dawning",
              "size": 1.0
            }
          },
          "isLocked": false,
          "isHidden": false,
          "layerIndex": 9
        },
        {
          "xPos": 258,
          "yPos": 95,
          "width": 150.0,
          "height": 13.0,
          "feature": {
            "class": "joshie.enchiridion.gui.book.features.FeatureText",
            "properties": {
              "text": "The Beyond",
              "size": 1.0
            }
          },
          "isLocked": false,
          "isHidden": false,
          "layerIndex": 10
        },
        {
          "xPos": 258,
          "yPos": 174,
          "width": 152.0,
          "height": 16.0,
          "feature": {
            "class": "joshie.enchiridion.gui.book.features.FeatureText",
            "properties": {
              "text": "Space Travel",
              "size": 1.0
            }
          },
          "isLocked": false,
          "isHidden": false,
          "layerIndex": 11
        },
        {
          "xPos": 259,
          "yPos": 127,
          "width": 146.0,
          "height": 14.0,
          "feature": {
            "class": "joshie.enchiridion.gui.book.features.FeatureText",
            "properties": {
              "text": "Infusion Crafting",
              "size": 1.0
            }
          },
          "isLocked": false,
          "isHidden": false,
          "layerIndex": 12
        },
        {
          "xPos": 236,
          "yPos": 141,
          "width": 18.0,
          "height": 10.0,
          "feature": {
            "class": "joshie.enchiridion.gui.book.features.FeatureButton",
            "properties": {
              "action": {
                "class": "joshie.enchiridion.gui.book.buttons.actions.ActionJumpPage",
                "properties": {
                  "bookID": "Craft_To_The_Future__The_Features",
                  "pageNumber": 8
                }
              },
              "size": 1.0,
              "leftClick": true,
              "rightClick": true,
              "otherClick": false,
              "tooltip": "",
              "hoverText": "",
              "hoverXOffset": 0,
              "hoverYOffset": 0,
              "unhoveredText": "",
              "unhoveredXOffset": 0,
              "unhoveredYOffset": 0,
              "hoveredResource": "enchiridion:textures/books/arrow_left_on.png",
              "unhoveredResource": "enchiridion:textures/books/arrow_left_off.png"
            }
          },
          "isLocked": false,
          "isHidden": false,
          "layerIndex": 13
        },
        {
          "xPos": 258,
          "yPos": 62,
          "width": 146.0,
          "height": 16.0,
          "feature": {
            "class": "joshie.enchiridion.gui.book.features.FeatureText",
            "properties": {
              "text": "The After",
              "size": 1.0
            }
          },
          "isLocked": false,
          "isHidden": false,
          "layerIndex": 14
        },
        {
          "xPos": 236,
          "yPos": 156,
          "width": 18.0,
          "height": 10.0,
          "feature": {
            "class": "joshie.enchiridion.gui.book.features.FeatureButton",
            "properties": {
              "action": {
                "class": "joshie.enchiridion.gui.book.buttons.actions.ActionJumpPage",
                "properties": {
                  "bookID": "Craft_To_The_Future__The_Feature",
                  "pageNumber": 9
                }
              },
              "size": 1.0,
              "leftClick": true,
              "rightClick": true,
              "otherClick": false,
              "tooltip": "",
              "hoverText": "",
              "hoverXOffset": 0,
              "hoverYOffset": 0,
              "unhoveredText": "",
              "unhoveredXOffset": 0,
              "unhoveredYOffset": 0,
              "hoveredResource": "enchiridion:textures/books/arrow_left_on.png",
              "unhoveredResource": "enchiridion:textures/books/arrow_left_off.png"
            }
          },
          "isLocked": false,
          "isHidden": false,
          "layerIndex": 15
        },
        {
          "xPos": 259,
          "yPos": 142,
          "width": 147.0,
          "height": 15.0,
          "feature": {
            "class": "joshie.enchiridion.gui.book.features.FeatureText",
            "properties": {
              "text": "Economy",
              "size": 1.0
            }
          },
          "isLocked": false,
          "isHidden": false,
          "layerIndex": 16
        },
        {
          "xPos": 236,
          "yPos": 172,
          "width": 18.0,
          "height": 10.0,
          "feature": {
            "class": "joshie.enchiridion.gui.book.features.FeatureButton",
            "properties": {
              "action": {
                "class": "joshie.enchiridion.gui.book.buttons.actions.ActionJumpPage",
                "properties": {
                  "bookID": "Craft_To_The_Future__The_Features",
                  "pageNumber": 9
                }
              },
              "size": 1.0,
              "leftClick": true,
              "rightClick": true,
              "otherClick": false,
              "tooltip": "",
              "hoverText": "",
              "hoverXOffset": 0,
              "hoverYOffset": 0,
              "unhoveredText": "",
              "unhoveredXOffset": 0,
              "unhoveredYOffset": 0,
              "hoveredResource": "enchiridion:textures/books/arrow_left_on.png",
              "unhoveredResource": "enchiridion:textures/books/arrow_left_off.png"
            }
          },
          "isLocked": false,
          "isHidden": false,
          "layerIndex": 17
        },
        {
          "xPos": 259,
          "yPos": 111,
          "width": 143.0,
          "height": 12.0,
          "feature": {
            "class": "joshie.enchiridion.gui.book.features.FeatureText",
            "properties": {
              "text": "Multiblock Machinery",
              "size": 1.0
            }
          },
          "isLocked": false,
          "isHidden": false,
          "layerIndex": 18
        },
        {
          "xPos": 88,
          "yPos": 116,
          "width": 111.0,
          "height": 86.0,
          "feature": {
            "class": "joshie.enchiridion.gui.book.features.FeatureImage",
            "properties": {
              "path": "enchiridion:images/Craft_To_The_Future__The_Features/Craft to the future - Figure and Vehicle (fire).png"
            }
          },
          "isLocked": false,
          "isHidden": false,
          "layerIndex": 19
        },
        {
          "xPos": 31,
          "yPos": 95,
          "width": 68.0,
          "height": 38.0,
          "feature": {
            "class": "joshie.enchiridion.gui.book.features.FeatureButton",
            "properties": {
              "action": {
                "class": "joshie.enchiridion.gui.book.buttons.actions.ActionOpenWebpage",
                "properties": {
                  "url": "https://www.reddit.com/r/CraftOfTheTitans/"
                }
              },
              "size": 1.0,
              "leftClick": true,
              "rightClick": true,
              "otherClick": false,
              "tooltip": "",
              "hoverText": "",
              "hoverXOffset": 0,
              "hoverYOffset": 0,
              "unhoveredText": "",
              "unhoveredXOffset": 0,
              "unhoveredYOffset": 0,
              "hoveredResource": "enchiridion:textures/books/arrow_left_on.png",
              "unhoveredResource": "enchiridion:images/craft_to_the_future__the_features/reddit-logo.jpg"
            }
          },
          "isLocked": false,
          "isHidden": false,
          "layerIndex": 20
        },
        {
          "xPos": 23,
          "yPos": 142,
          "width": 83.0,
          "height": 26.0,
          "feature": {
            "class": "joshie.enchiridion.gui.book.features.FeatureButton",
            "properties": {
              "action": {
                "class": "joshie.enchiridion.gui.book.buttons.actions.ActionOpenWebpage",
                "properties": {
                  "url": "https://discord.gg/TZXf2Su"
                }
              },
              "size": 1.0,
              "leftClick": true,
              "rightClick": true,
              "otherClick": false,
              "tooltip": "",
              "hoverText": "",
              "hoverXOffset": 0,
              "hoverYOffset": 0,
              "unhoveredText": "",
              "unhoveredXOffset": 0,
              "unhoveredYOffset": 0,
              "hoveredResource": "enchiridion:textures/books/arrow_left_on.png",
              "unhoveredResource": "enchiridion:images/craft_to_the_future__the_features/discord.png"
            }
          },
          "isLocked": false,
          "isHidden": false,
          "layerIndex": 21
        },
        {
          "xPos": 20,
          "yPos": 197,
          "width": 37.0,
          "height": 8.0,
          "feature": {
            "class": "joshie.enchiridion.gui.book.features.FeatureButton",
            "properties": {
              "action": {
                "class": "joshie.enchiridion.gui.book.buttons.actions.ActionOpenWebpage",
                "properties": {
                  "url": "https://www.patreon.com/boolyman"
                }
              },
              "size": 1.0,
              "leftClick": true,
              "rightClick": true,
              "otherClick": false,
              "tooltip": "",
              "hoverText": "",
              "hoverXOffset": 0,
              "hoverYOffset": 0,
              "unhoveredText": "",
              "unhoveredXOffset": 0,
              "unhoveredYOffset": 0,
              "hoveredResource": "enchiridion:textures/books/arrow_left_on.png",
              "unhoveredResource": "enchiridion:images/craft_to_the_future__the_features/1000px-patreon_logo_with_wordmark.svg.png"
            }
          },
          "isLocked": false,
          "isHidden": false,
          "layerIndex": 22
        },
        {
          "xPos": 28,
          "yPos": 14,
          "width": 159.0,
          "height": 67.0,
          "feature": {
            "class": "joshie.enchiridion.gui.book.features.FeatureImage",
            "properties": {
              "path": "enchiridion:images/Craft_To_The_Future__The_Features/titlex.png"
            }
          },
          "isLocked": false,
          "isHidden": false,
          "layerIndex": 23
        },
        {
          "xPos": 254,
          "yPos": 189,
          "width": 137.0,
          "height": 12.0,
          "feature": {
            "class": "joshie.enchiridion.gui.book.features.FeatureImage",
            "properties": {
              "path": "enchiridion:images/Craft_To_The_Future__The_Features/booly.png"
            }
          },
          "isLocked": false,
          "isHidden": false,
          "layerIndex": 24
        },
        {
          "xPos": 258,
          "yPos": 158,
          "width": 145.0,
          "height": 12.0,
          "feature": {
            "class": "joshie.enchiridion.gui.book.features.FeatureText",
            "properties": {
              "text": "Time Travel",
              "size": 1.0
            }
          },
          "isLocked": false,
          "isHidden": false,
          "layerIndex": 25
        }
      ],
      "pageNumber": 0,
      "isScrollable": false
    },
    {
      "features": [
        {
          "xPos": 21,
          "yPos": 200,
          "width": 18.0,
          "height": 10.0,
          "feature": {
            "class": "joshie.enchiridion.gui.book.features.FeatureButton",
            "properties": {
              "action": {
                "class": "joshie.enchiridion.gui.book.buttons.actions.ActionPreviousPage",
                "properties": {}
              },
              "size": 1.0,
              "leftClick": true,
              "rightClick": true,
              "otherClick": false,
              "tooltip": "",
              "hoverText": "",
              "hoverXOffset": 0,
              "hoverYOffset": 0,
              "unhoveredText": "",
              "unhoveredXOffset": 0,
              "unhoveredYOffset": 0,
              "hoveredResource": "enchiridion:textures/books/arrow_left_on.png",
              "unhoveredResource": "enchiridion:textures/books/arrow_left_off.png"
            }
          },
          "isLocked": true,
          "isHidden": false,
          "layerIndex": 0
        },
        {
          "xPos": 387,
          "yPos": 200,
          "width": 18.0,
          "height": 10.0,
          "feature": {
            "class": "joshie.enchiridion.gui.book.features.FeatureButton",
            "properties": {
              "action": {
                "class": "joshie.enchiridion.gui.book.buttons.actions.ActionNextPage",
                "properties": {}
              },
              "size": 1.0,
              "leftClick": true,
              "rightClick": true,
              "otherClick": false,
              "tooltip": "",
              "hoverText": "",
              "hoverXOffset": 0,
              "hoverYOffset": 0,
              "unhoveredText": "",
              "unhoveredXOffset": 0,
              "unhoveredYOffset": 0,
              "hoveredResource": "enchiridion:textures/books/arrow_right_on.png",
              "unhoveredResource": "enchiridion:textures/books/arrow_right_off.png"
            }
          },
          "isLocked": true,
          "isHidden": false,
          "layerIndex": 1
        },
        {
          "xPos": 34,
          "yPos": 18,
          "width": 147.0,
          "height": 42.0,
          "feature": {
            "class": "joshie.enchiridion.gui.book.features.FeatureImage",
            "properties": {
              "path": "enchiridion:images/Craft_To_The_Future__The_Features/story.png"
            }
          },
          "isLocked": false,
          "isHidden": false,
          "layerIndex": 2
        },
        {
          "xPos": 25,
          "yPos": 59,
          "width": 175.0,
          "height": 73.0,
          "feature": {
            "class": "joshie.enchiridion.gui.book.features.FeatureText",
            "properties": {
              "text": "Eons ago there existed two heavenly factions that worked together to bring harmony to the universe.  The Old Gods, almighty Titans of immense intellect and magical prowess ruled over the Dragonflight, winged Titans of cunning and strength.  ",
              "size": 1.0
            }
          },
          "isLocked": false,
          "isHidden": false,
          "layerIndex": 3
        },
        {
          "xPos": 21,
          "yPos": 135,
          "width": 63.0,
          "height": 63.0,
          "feature": {
            "class": "joshie.enchiridion.gui.book.features.FeatureImage",
            "properties": {
              "path": "enchiridion:images/Craft_To_The_Future__The_Features/Title.png"
            }
          },
          "isLocked": false,
          "isHidden": false,
          "layerIndex": 4
        },
        {
          "xPos": 87,
          "yPos": 135,
          "width": 119.0,
          "height": 71.0,
          "feature": {
            "class": "joshie.enchiridion.gui.book.features.FeatureText",
            "properties": {
              "text": "Brahemic, leader of the Dragonflight faction, and his liuetenants Silaqui Greyhawk and The Great Tunah grew weary of this forced subordination.",
              "size": 1.0
            }
          },
          "isLocked": false,
          "isHidden": false,
          "layerIndex": 5
        },
        {
          "xPos": 228,
          "yPos": 18,
          "width": 185.0,
          "height": 74.0,
          "feature": {
            "class": "joshie.enchiridion.gui.book.features.FeatureText",
            "properties": {
              "text": "   The Dragonflight launched a suprise revolution against the Old Gods, overpowering them with surprise and great numbers.  They exiled the Old Gods to The Beyond, and embarked on a warpath, plundering all of the worlds they felt had been rightfully theirs.",
              "size": 1.0
            }
          },
          "isLocked": false,
          "isHidden": false,
          "layerIndex": 6
        },
        {
          "xPos": 225,
          "yPos": 91,
          "width": 184.0,
          "height": 32.0,
          "feature": {
            "class": "joshie.enchiridion.gui.book.features.FeatureText",
            "properties": {
              "text": "    In Craft Of The Titans, you encountered the Dragonflight as you attempted to secure a safe haven for your family in a new land.",
              "size": 1.0
            }
          },
          "isLocked": false,
          "isHidden": false,
          "layerIndex": 7
        },
        {
          "xPos": 226,
          "yPos": 128,
          "width": 90.0,
          "height": 77.0,
          "feature": {
            "class": "joshie.enchiridion.gui.book.features.FeatureText",
            "properties": {
              "text": "   The scorned Dragonflight coveted Earth for their own, and vowed to rid it of all other beings.  You would not stand for this.",
              "size": 1.0
            }
          },
          "isLocked": false,
          "isHidden": false,
          "layerIndex": 8
        },
        {
          "xPos": 320,
          "yPos": 129,
          "width": 86.0,
          "height": 74.0,
          "feature": {
            "class": "joshie.enchiridion.gui.book.features.FeatureImage",
            "properties": {
              "path": "enchiridion:images/Craft_To_The_Future__The_Features/ice-fire-mod-3.png"
            }
          },
          "isLocked": false,
          "isHidden": false,
          "layerIndex": 9
        }
      ],
      "pageNumber": 1,
      "isScrollable": false
    },
    {
      "features": [
        {
          "xPos": 21,
          "yPos": 200,
          "width": 18.0,
          "height": 10.0,
          "feature": {
            "class": "joshie.enchiridion.gui.book.features.FeatureButton",
            "properties": {
              "action": {
                "class": "joshie.enchiridion.gui.book.buttons.actions.ActionPreviousPage",
                "properties": {}
              },
              "size": 1.0,
              "leftClick": true,
              "rightClick": true,
              "otherClick": false,
              "tooltip": "",
              "hoverText": "",
              "hoverXOffset": 0,
              "hoverYOffset": 0,
              "unhoveredText": "",
              "unhoveredXOffset": 0,
              "unhoveredYOffset": 0,
              "hoveredResource": "enchiridion:textures/books/arrow_left_on.png",
              "unhoveredResource": "enchiridion:textures/books/arrow_left_off.png"
            }
          },
          "isLocked": true,
          "isHidden": false,
          "layerIndex": 0
        },
        {
          "xPos": 387,
          "yPos": 200,
          "width": 18.0,
          "height": 10.0,
          "feature": {
            "class": "joshie.enchiridion.gui.book.features.FeatureButton",
            "properties": {
              "action": {
                "class": "joshie.enchiridion.gui.book.buttons.actions.ActionNextPage",
                "properties": {}
              },
              "size": 1.0,
              "leftClick": true,
              "rightClick": true,
              "otherClick": false,
              "tooltip": "",
              "hoverText": "",
              "hoverXOffset": 0,
              "hoverYOffset": 0,
              "unhoveredText": "",
              "unhoveredXOffset": 0,
              "unhoveredYOffset": 0,
              "hoveredResource": "enchiridion:textures/books/arrow_right_on.png",
              "unhoveredResource": "enchiridion:textures/books/arrow_right_off.png"
            }
          },
          "isLocked": true,
          "isHidden": false,
          "layerIndex": 1
        },
        {
          "xPos": 18,
          "yPos": 13,
          "width": 185.0,
          "height": 124.0,
          "feature": {
            "class": "joshie.enchiridion.gui.book.features.FeatureText",
            "properties": {
              "text": "  The Dragonflight did not count on your ingenuity and determination.  Using powerfully enchanted weapons and a mastery of the Arcane Magics, you slowly dismantled the haughty Dragonflight leadership, culminating in the slaying of the great Dragon Titan Brahemic.  The Old Gods would be unaware of this when they escaped their exilement.  They traced the Dragonflight to the Earth and when none could be found, they scorched the entire planet.  Tyrion, a neutral Time Warden hid you away.",
              "size": 1.0
            }
          },
          "isLocked": false,
          "isHidden": false,
          "layerIndex": 2
        },
        {
          "xPos": 18,
          "yPos": 139,
          "width": 105.0,
          "height": 68.0,
          "feature": {
            "class": "joshie.enchiridion.gui.book.features.FeatureText",
            "properties": {
              "text": "   Now all you have left of your old life is this picture of your family. Can you go back in time to undo the Great War and save them?",
              "size": 1.0
            }
          },
          "isLocked": false,
          "isHidden": false,
          "layerIndex": 3
        },
        {
          "xPos": 122,
          "yPos": 145,
          "width": 83.0,
          "height": 51.0,
          "feature": {
            "class": "joshie.enchiridion.gui.book.features.FeatureImage",
            "properties": {
              "path": "enchiridion:images/Craft_To_The_Future__The_Features/family.jpg"
            }
          },
          "isLocked": false,
          "isHidden": false,
          "layerIndex": 4
        },
        {
          "xPos": 246,
          "yPos": 16,
          "width": 149.0,
          "height": 23.0,
          "feature": {
            "class": "joshie.enchiridion.gui.book.features.FeatureImage",
            "properties": {
              "path": "enchiridion:images/Craft_To_The_Future__The_Features/theafter.png"
            }
          },
          "isLocked": false,
          "isHidden": false,
          "layerIndex": 5
        },
        {
          "xPos": 227,
          "yPos": 95,
          "width": 179.0,
          "height": 106.0,
          "feature": {
            "class": "joshie.enchiridion.gui.book.features.FeatureText",
            "properties": {
              "text": "  The After is named so because it is what remains of the earth after the scorching from the Old Gods. The trees have withered, the dirt has hardened; all that was lush and green has come to pass.  The desolation of this barren planet is only rivaled by the visciousness of it\u0027s remaining inhabitants.\n   Resources are very limited in this period of time.  Iron, Copper, and",
              "size": 1.0
            }
          },
          "isLocked": false,
          "isHidden": false,
          "layerIndex": 6
        },
        {
          "xPos": 263,
          "yPos": 44,
          "width": 109.0,
          "height": 46.0,
          "feature": {
            "class": "joshie.enchiridion.gui.book.features.FeatureImage",
            "properties": {
              "path": "enchiridion:images/Craft_To_The_Future__The_Features/quote.png"
            }
          },
          "isLocked": false,
          "isHidden": false,
          "layerIndex": 7
        }
      ],
      "pageNumber": 2,
      "isScrollable": false
    },
    {
      "features": [
        {
          "xPos": 21,
          "yPos": 200,
          "width": 18.0,
          "height": 10.0,
          "feature": {
            "class": "joshie.enchiridion.gui.book.features.FeatureButton",
            "properties": {
              "action": {
                "class": "joshie.enchiridion.gui.book.buttons.actions.ActionPreviousPage",
                "properties": {}
              },
              "size": 1.0,
              "leftClick": true,
              "rightClick": true,
              "otherClick": false,
              "tooltip": "",
              "hoverText": "",
              "hoverXOffset": 0,
              "hoverYOffset": 0,
              "unhoveredText": "",
              "unhoveredXOffset": 0,
              "unhoveredYOffset": 0,
              "hoveredResource": "enchiridion:textures/books/arrow_left_on.png",
              "unhoveredResource": "enchiridion:textures/books/arrow_left_off.png"
            }
          },
          "isLocked": true,
          "isHidden": false,
          "layerIndex": 0
        },
        {
          "xPos": 387,
          "yPos": 200,
          "width": 18.0,
          "height": 10.0,
          "feature": {
            "class": "joshie.enchiridion.gui.book.features.FeatureButton",
            "properties": {
              "action": {
                "class": "joshie.enchiridion.gui.book.buttons.actions.ActionNextPage",
                "properties": {}
              },
              "size": 1.0,
              "leftClick": true,
              "rightClick": true,
              "otherClick": false,
              "tooltip": "",
              "hoverText": "",
              "hoverXOffset": 0,
              "hoverYOffset": 0,
              "unhoveredText": "",
              "unhoveredXOffset": 0,
              "unhoveredYOffset": 0,
              "hoveredResource": "enchiridion:textures/books/arrow_right_on.png",
              "unhoveredResource": "enchiridion:textures/books/arrow_right_off.png"
            }
          },
          "isLocked": true,
          "isHidden": false,
          "layerIndex": 1
        },
        {
          "xPos": 20,
          "yPos": 17,
          "width": 187.0,
          "height": 133.0,
          "feature": {
            "class": "joshie.enchiridion.gui.book.features.FeatureText",
            "properties": {
              "text": "nickel ores can be found along with redstone.  Most other precious metals have been sieved out of the planet, as the Old Gods considered them to be of benefit to the Dragonflight, should they return to Earth.\n    Tyrian, a quirky nuetral Time Warden, whisked you into hiding in just enough time to survive the destruction.  He put you into hibernation, allowing you to rest in a bunker until the earth had cooled.",
              "size": 1.0
            }
          },
          "isLocked": false,
          "isHidden": false,
          "layerIndex": 2
        },
        {
          "xPos": 88,
          "yPos": 134,
          "width": 113.0,
          "height": 67.0,
          "feature": {
            "class": "joshie.enchiridion.gui.book.features.FeatureImage",
            "properties": {
              "path": "enchiridion:images/Craft_To_The_Future__The_Features/Wasteland.png"
            }
          },
          "isLocked": false,
          "isHidden": false,
          "layerIndex": 3
        },
        {
          "xPos": 20,
          "yPos": 135,
          "width": 64.0,
          "height": 71.0,
          "feature": {
            "class": "joshie.enchiridion.gui.book.features.FeatureText",
            "properties": {
              "text": "It is now up to you to escape The After and return in time to save the world.",
              "size": 1.0
            }
          },
          "isLocked": false,
          "isHidden": false,
          "layerIndex": 4
        },
        {
          "xPos": 234,
          "yPos": 18,
          "width": 171.0,
          "height": 21.0,
          "feature": {
            "class": "joshie.enchiridion.gui.book.features.FeatureImage",
            "properties": {
              "path": "enchiridion:images/Craft_To_The_Future__The_Features/thedawning.png"
            }
          },
          "isLocked": false,
          "isHidden": false,
          "layerIndex": 5
        },
        {
          "xPos": 230,
          "yPos": 41,
          "width": 179.0,
          "height": 156.0,
          "feature": {
            "class": "joshie.enchiridion.gui.book.features.FeatureText",
            "properties": {
              "text": "   With the assistance of Doc Emmett Brown, you will construct the Delorean.  This vehicle, using 1.21 Gigawatts of Redstone Flux and a combination of Bio Diesel fuel, will launch you back in time; to before you battled the Great Titan Brahemic; to before the Great War between the Dragonflight and the Old Gods; to before the Earth was tainted by any hands, human or other.  \n   This does not mean it is peaceful.  Quite the opposite.  You will encounter myriads of hostile and friendly creatures in biomes you have never imagined.  Be prepared",
              "size": 1.0
            }
          },
          "isLocked": false,
          "isHidden": false,
          "layerIndex": 6
        }
      ],
      "pageNumber": 3,
      "isScrollable": false
    },
    {
      "features": [
        {
          "xPos": 21,
          "yPos": 200,
          "width": 18.0,
          "height": 10.0,
          "feature": {
            "class": "joshie.enchiridion.gui.book.features.FeatureButton",
            "properties": {
              "action": {
                "class": "joshie.enchiridion.gui.book.buttons.actions.ActionPreviousPage",
                "properties": {}
              },
              "size": 1.0,
              "leftClick": true,
              "rightClick": true,
              "otherClick": false,
              "tooltip": "",
              "hoverText": "",
              "hoverXOffset": 0,
              "hoverYOffset": 0,
              "unhoveredText": "",
              "unhoveredXOffset": 0,
              "unhoveredYOffset": 0,
              "hoveredResource": "enchiridion:textures/books/arrow_left_on.png",
              "unhoveredResource": "enchiridion:textures/books/arrow_left_off.png"
            }
          },
          "isLocked": true,
          "isHidden": false,
          "layerIndex": 0
        },
        {
          "xPos": 387,
          "yPos": 200,
          "width": 18.0,
          "height": 10.0,
          "feature": {
            "class": "joshie.enchiridion.gui.book.features.FeatureButton",
            "properties": {
              "action": {
                "class": "joshie.enchiridion.gui.book.buttons.actions.ActionNextPage",
                "properties": {}
              },
              "size": 1.0,
              "leftClick": true,
              "rightClick": true,
              "otherClick": false,
              "tooltip": "",
              "hoverText": "",
              "hoverXOffset": 0,
              "hoverYOffset": 0,
              "unhoveredText": "",
              "unhoveredXOffset": 0,
              "unhoveredYOffset": 0,
              "hoveredResource": "enchiridion:textures/books/arrow_right_on.png",
              "unhoveredResource": "enchiridion:textures/books/arrow_right_off.png"
            }
          },
          "isLocked": true,
          "isHidden": false,
          "layerIndex": 1
        },
        {
          "xPos": 236,
          "yPos": 18,
          "width": 169.0,
          "height": 22.0,
          "feature": {
            "class": "joshie.enchiridion.gui.book.features.FeatureImage",
            "properties": {
              "path": "enchiridion:images/Craft_To_The_Future__The_Features/beyond.png"
            }
          },
          "isLocked": false,
          "isHidden": false,
          "layerIndex": 2
        },
        {
          "xPos": 22,
          "yPos": 17,
          "width": 179.0,
          "height": 110.0,
          "feature": {
            "class": "joshie.enchiridion.gui.book.features.FeatureText",
            "properties": {
              "text": "to develop your technology and your resources.  This Dawning is as new to you as it is the other inhabitants.  \n    That does not mean others have not also began reaping the rewards of the lush new planet.   Business Mogul Biff Tannen is said to have taken over a very lucrative trade network that spans the galaxy.  ",
              "size": 1.0
            }
          },
          "isLocked": false,
          "isHidden": false,
          "layerIndex": 3
        },
        {
          "xPos": 238,
          "yPos": 45,
          "width": 161.0,
          "height": 149.0,
          "feature": {
            "class": "joshie.enchiridion.gui.book.features.FeatureText",
            "properties": {
              "text": "    Your ultimate goal is to reach the Heavens of Outer Space, in a Time Plane known as The Beyond.  There you will hopefully gain audience with the Old Gods.  One way or another, you must convince them that the war between the Dragonflight and the Old Gods can not take place.  \n    There is not much known about the heavens, only that it is in the far reaches of space, reachable with advanced technology and the manipulation of gateways.  Good luck, friend.",
              "size": 1.0
            }
          },
          "isLocked": false,
          "isHidden": false,
          "layerIndex": 4
        },
        {
          "xPos": 36,
          "yPos": 168,
          "width": 77.0,
          "height": 74.0,
          "feature": {
            "class": "joshie.enchiridion.gui.book.features.FeatureText",
            "properties": {
              "text": "",
              "size": 1.0
            }
          },
          "isLocked": false,
          "isHidden": false,
          "layerIndex": 5
        },
        {
          "xPos": 23,
          "yPos": 110,
          "width": 115.0,
          "height": 88.0,
          "feature": {
            "class": "joshie.enchiridion.gui.book.features.FeatureText",
            "properties": {
              "text": "  You must gain access\nto this trade network, as it will provide some invaluable items that can not be gotten by other means.  Be aware though, they tend to only trade to those in good standing.",
              "size": 1.0
            }
          },
          "isLocked": false,
          "isHidden": false,
          "layerIndex": 6
        },
        {
          "xPos": 181,
          "yPos": 145,
          "width": 16.0,
          "height": 16.0,
          "feature": {
            "class": "joshie.enchiridion.gui.book.features.FeatureItem",
            "properties": {
              "itemString": "defier:energyprovider",
              "hideTooltip": false
            }
          },
          "isLocked": false,
          "isHidden": false,
          "layerIndex": 7
        },
        {
          "xPos": 148,
          "yPos": 116,
          "width": 31.0,
          "height": 31.0,
          "feature": {
            "class": "joshie.enchiridion.gui.book.features.FeatureItem",
            "properties": {
              "itemString": "economy:item_hundreedb",
              "hideTooltip": false
            }
          },
          "isLocked": false,
          "isHidden": false,
          "layerIndex": 8
        },
        {
          "xPos": 142,
          "yPos": 159,
          "width": 34.0,
          "height": 34.0,
          "feature": {
            "class": "joshie.enchiridion.gui.book.features.FeatureItem",
            "properties": {
              "itemString": "economy:block_atm",
              "hideTooltip": false
            }
          },
          "isLocked": false,
          "isHidden": false,
          "layerIndex": 9
        }
      ],
      "pageNumber": 4,
      "isScrollable": false
    },
    {
      "features": [
        {
          "xPos": 21,
          "yPos": 200,
          "width": 18.0,
          "height": 10.0,
          "feature": {
            "class": "joshie.enchiridion.gui.book.features.FeatureButton",
            "properties": {
              "action": {
                "class": "joshie.enchiridion.gui.book.buttons.actions.ActionPreviousPage",
                "properties": {}
              },
              "size": 1.0,
              "leftClick": true,
              "rightClick": true,
              "otherClick": false,
              "tooltip": "",
              "hoverText": "",
              "hoverXOffset": 0,
              "hoverYOffset": 0,
              "unhoveredText": "",
              "unhoveredXOffset": 0,
              "unhoveredYOffset": 0,
              "hoveredResource": "enchiridion:textures/books/arrow_left_on.png",
              "unhoveredResource": "enchiridion:textures/books/arrow_left_off.png"
            }
          },
          "isLocked": true,
          "isHidden": false,
          "layerIndex": 0
        },
        {
          "xPos": 387,
          "yPos": 200,
          "width": 18.0,
          "height": 10.0,
          "feature": {
            "class": "joshie.enchiridion.gui.book.features.FeatureButton",
            "properties": {
              "action": {
                "class": "joshie.enchiridion.gui.book.buttons.actions.ActionNextPage",
                "properties": {}
              },
              "size": 1.0,
              "leftClick": true,
              "rightClick": true,
              "otherClick": false,
              "tooltip": "",
              "hoverText": "",
              "hoverXOffset": 0,
              "hoverYOffset": 0,
              "unhoveredText": "",
              "unhoveredXOffset": 0,
              "unhoveredYOffset": 0,
              "hoveredResource": "enchiridion:textures/books/arrow_right_on.png",
              "unhoveredResource": "enchiridion:textures/books/arrow_right_off.png"
            }
          },
          "isLocked": true,
          "isHidden": false,
          "layerIndex": 1
        },
        {
          "xPos": 30,
          "yPos": 17,
          "width": 153.0,
          "height": 44.0,
          "feature": {
            "class": "joshie.enchiridion.gui.book.features.FeatureImage",
            "properties": {
              "path": "enchiridion:images/Craft_To_The_Future__The_Features/modmachine.png"
            }
          },
          "isLocked": false,
          "isHidden": false,
          "layerIndex": 2
        },
        {
          "xPos": 248,
          "yPos": 13,
          "width": 143.0,
          "height": 117.0,
          "feature": {
            "class": "joshie.enchiridion.gui.book.features.FeatureImage",
            "properties": {
              "path": "enchiridion:images/Craft_To_The_Future__The_Features/Rejuv.png"
            }
          },
          "isLocked": false,
          "isHidden": false,
          "layerIndex": 3
        },
        {
          "xPos": 21,
          "yPos": 110,
          "width": 112.0,
          "height": 93.0,
          "feature": {
            "class": "joshie.enchiridion.gui.book.features.FeatureImage",
            "properties": {
              "path": "enchiridion:images/Craft_To_The_Future__The_Features/Treencubator.png"
            }
          },
          "isLocked": false,
          "isHidden": false,
          "layerIndex": 4
        },
        {
          "xPos": 26,
          "yPos": 63,
          "width": 174.0,
          "height": 41.0,
          "feature": {
            "class": "joshie.enchiridion.gui.book.features.FeatureText",
            "properties": {
              "text": "   Multiblock Machine structures known as Modular Machinery will be crucial in your progression starting from very early.  Using a combination of the limited materials",
              "size": 1.0
            }
          },
          "isLocked": false,
          "isHidden": false,
          "layerIndex": 5
        },
        {
          "xPos": 136,
          "yPos": 109,
          "width": 67.0,
          "height": 92.0,
          "feature": {
            "class": "joshie.enchiridion.gui.book.features.FeatureText",
            "properties": {
              "text": "available in The After, you will work on developing a conductive alloy called Modularium. A great deal of your success depends on ",
              "size": 1.0
            }
          },
          "isLocked": false,
          "isHidden": false,
          "layerIndex": 6
        },
        {
          "xPos": 292,
          "yPos": 135,
          "width": 111.0,
          "height": 68.0,
          "feature": {
            "class": "joshie.enchiridion.gui.book.features.FeatureText",
            "properties": {
              "text": "finding the resources needed to craft the  Modularium.  Then building the machines needed to progress your technology and... Craft To The Future.",
              "size": 1.0
            }
          },
          "isLocked": false,
          "isHidden": false,
          "layerIndex": 7
        },
        {
          "xPos": 240,
          "yPos": 133,
          "width": 29.0,
          "height": 29.0,
          "feature": {
            "class": "joshie.enchiridion.gui.book.features.FeatureItem",
            "properties": {
              "itemString": "modularmachinery:itemblueprint {dynamicmachine:\"modularmachinery:iron_centrifuge\"}",
              "hideTooltip": false
            }
          },
          "isLocked": false,
          "isHidden": false,
          "layerIndex": 8
        },
        {
          "xPos": 229,
          "yPos": 171,
          "width": 59.0,
          "height": 59.0,
          "feature": {
            "class": "joshie.enchiridion.gui.book.features.FeatureRecipe",
            "properties": {
              "ingredients": "plankWood:plankWood:plankWood:cobblestone:ingotAluminum:cobblestone:cobblestone:dustRedstone:cobblestone",
              "recipeType": "ShapedRecipes",
              "itemString": "modularmachinery:itemmodularium",
              "hideTooltip": false
            }
          },
          "isLocked": false,
          "isHidden": false,
          "layerIndex": 9
        }
      ],
      "pageNumber": 5,
      "isScrollable": false
    },
    {
      "features": [
        {
          "xPos": 21,
          "yPos": 200,
          "width": 18.0,
          "height": 10.0,
          "feature": {
            "class": "joshie.enchiridion.gui.book.features.FeatureButton",
            "properties": {
              "action": {
                "class": "joshie.enchiridion.gui.book.buttons.actions.ActionPreviousPage",
                "properties": {}
              },
              "size": 1.0,
              "leftClick": true,
              "rightClick": true,
              "otherClick": false,
              "tooltip": "",
              "hoverText": "",
              "hoverXOffset": 0,
              "hoverYOffset": 0,
              "unhoveredText": "",
              "unhoveredXOffset": 0,
              "unhoveredYOffset": 0,
              "hoveredResource": "enchiridion:textures/books/arrow_left_on.png",
              "unhoveredResource": "enchiridion:textures/books/arrow_left_off.png"
            }
          },
          "isLocked": true,
          "isHidden": false,
          "layerIndex": 0
        },
        {
          "xPos": 387,
          "yPos": 200,
          "width": 18.0,
          "height": 10.0,
          "feature": {
            "class": "joshie.enchiridion.gui.book.features.FeatureButton",
            "properties": {
              "action": {
                "class": "joshie.enchiridion.gui.book.buttons.actions.ActionNextPage",
                "properties": {}
              },
              "size": 1.0,
              "leftClick": true,
              "rightClick": true,
              "otherClick": false,
              "tooltip": "",
              "hoverText": "",
              "hoverXOffset": 0,
              "hoverYOffset": 0,
              "unhoveredText": "",
              "unhoveredXOffset": 0,
              "unhoveredYOffset": 0,
              "hoveredResource": "enchiridion:textures/books/arrow_right_on.png",
              "unhoveredResource": "enchiridion:textures/books/arrow_right_off.png"
            }
          },
          "isLocked": true,
          "isHidden": false,
          "layerIndex": 1
        },
        {
          "xPos": 325,
          "yPos": 19,
          "width": 87.0,
          "height": 64.0,
          "feature": {
            "class": "joshie.enchiridion.gui.book.features.FeatureImage",
            "properties": {
              "path": "enchiridion:images/Craft_To_The_Future__The_Features/Extended.png"
            }
          },
          "isLocked": false,
          "isHidden": false,
          "layerIndex": 2
        },
        {
          "xPos": 29,
          "yPos": 15,
          "width": 158.0,
          "height": 46.0,
          "feature": {
            "class": "joshie.enchiridion.gui.book.features.FeatureImage",
            "properties": {
              "path": "enchiridion:images/Craft_To_The_Future__The_Features/infusioncraft.png"
            }
          },
          "isLocked": false,
          "isHidden": false,
          "layerIndex": 3
        },
        {
          "xPos": 29,
          "yPos": 120,
          "width": 80.0,
          "height": 75.0,
          "feature": {
            "class": "joshie.enchiridion.gui.book.features.FeatureImage",
            "properties": {
              "path": "enchiridion:images/Craft_To_The_Future__The_Features/infusion2.png"
            }
          },
          "isLocked": false,
          "isHidden": false,
          "layerIndex": 4
        },
        {
          "xPos": 29,
          "yPos": 67,
          "width": 175.0,
          "height": 57.0,
          "feature": {
            "class": "joshie.enchiridion.gui.book.features.FeatureText",
            "properties": {
              "text": "   Infusion Crafting is the process of innervating items with Redstone Flux and fusing them together to form complicated mechanical parts.  You will find this crafting process necessary very early on.",
              "size": 1.0
            }
          },
          "isLocked": false,
          "isHidden": false,
          "layerIndex": 5
        },
        {
          "xPos": 111,
          "yPos": 124,
          "width": 92.0,
          "height": 84.0,
          "feature": {
            "class": "joshie.enchiridion.gui.book.features.FeatureText",
            "properties": {
              "text": "   The Infusion Crafting process is setup by placing 4 Fusion Pedestals around 1 Crafting Core.  You will need to supply RF flux to the Core.",
              "size": 1.0
            }
          },
          "isLocked": false,
          "isHidden": false,
          "layerIndex": 6
        },
        {
          "xPos": 232,
          "yPos": 20,
          "width": 87.0,
          "height": 77.0,
          "feature": {
            "class": "joshie.enchiridion.gui.book.features.FeatureText",
            "properties": {
              "text": "   Using a series of filters, pipes, and chests, you can easily make an automated Infusion Crafting setup.",
              "size": 1.0
            }
          },
          "isLocked": false,
          "isHidden": false,
          "layerIndex": 7
        },
        {
          "xPos": 238,
          "yPos": 147,
          "width": 159.0,
          "height": 54.0,
          "feature": {
            "class": "joshie.enchiridion.gui.book.features.FeatureImage",
            "properties": {
              "path": "enchiridion:images/Craft_To_The_Future__The_Features/TECrafting.png"
            }
          },
          "isLocked": false,
          "isHidden": false,
          "layerIndex": 8
        },
        {
          "xPos": 232,
          "yPos": 85,
          "width": 182.0,
          "height": 58.0,
          "feature": {
            "class": "joshie.enchiridion.gui.book.features.FeatureText",
            "properties": {
              "text": "   The Thermal Expansion machine tier upgrade system has been heavily revamped in this pack.  It is a mix of the old school tiered frames and the Infusion Crafting System.  Click on the side of the Crafting Core to view recipes.",
              "size": 1.0
            }
          },
          "isLocked": false,
          "isHidden": false,
          "layerIndex": 9
        }
      ],
      "pageNumber": 7,
      "isScrollable": false
    },
    {
      "features": [
        {
          "xPos": 21,
          "yPos": 200,
          "width": 18.0,
          "height": 10.0,
          "feature": {
            "class": "joshie.enchiridion.gui.book.features.FeatureButton",
            "properties": {
              "action": {
                "class": "joshie.enchiridion.gui.book.buttons.actions.ActionPreviousPage",
                "properties": {}
              },
              "size": 1.0,
              "leftClick": true,
              "rightClick": true,
              "otherClick": false,
              "tooltip": "",
              "hoverText": "",
              "hoverXOffset": 0,
              "hoverYOffset": 0,
              "unhoveredText": "",
              "unhoveredXOffset": 0,
              "unhoveredYOffset": 0,
              "hoveredResource": "enchiridion:textures/books/arrow_left_on.png",
              "unhoveredResource": "enchiridion:textures/books/arrow_left_off.png"
            }
          },
          "isLocked": true,
          "isHidden": false,
          "layerIndex": 0
        },
        {
          "xPos": 387,
          "yPos": 200,
          "width": 18.0,
          "height": 10.0,
          "feature": {
            "class": "joshie.enchiridion.gui.book.features.FeatureButton",
            "properties": {
              "action": {
                "class": "joshie.enchiridion.gui.book.buttons.actions.ActionNextPage",
                "properties": {}
              },
              "size": 1.0,
              "leftClick": true,
              "rightClick": true,
              "otherClick": false,
              "tooltip": "",
              "hoverText": "",
              "hoverXOffset": 0,
              "hoverYOffset": 0,
              "unhoveredText": "",
              "unhoveredXOffset": 0,
              "unhoveredYOffset": 0,
              "hoveredResource": "enchiridion:textures/books/arrow_right_on.png",
              "unhoveredResource": "enchiridion:textures/books/arrow_right_off.png"
            }
          },
          "isLocked": true,
          "isHidden": false,
          "layerIndex": 1
        },
        {
          "xPos": 22,
          "yPos": 39,
          "width": 184.0,
          "height": 80.0,
          "feature": {
            "class": "joshie.enchiridion.gui.book.features.FeatureText",
            "properties": {
              "text": "   Tyrian did not leave you without friends to help you along the way.  Doc Emmett Brown will be with you at the very beginning to offer you valuable trade ins for relics you find while in the After.  These can give you a break from the resource grind or a leg up against the onslaught of hostile foes.",
              "size": 1.0
            }
          },
          "isLocked": false,
          "isHidden": false,
          "layerIndex": 2
        },
        {
          "xPos": 22,
          "yPos": 121,
          "width": 134.0,
          "height": 79.0,
          "feature": {
            "class": "joshie.enchiridion.gui.book.features.FeatureText",
            "properties": {
              "text": "   Once you have travelled back to the Dawning, a new world of economy will open up to you via the International Trade Market. By raising your reputation with the I.T.M. you will gain access to increasingly valuable trades.  ",
              "size": 1.0
            }
          },
          "isLocked": false,
          "isHidden": false,
          "layerIndex": 3
        },
        {
          "xPos": 153,
          "yPos": 113,
          "width": 53.0,
          "height": 82.0,
          "feature": {
            "class": "joshie.enchiridion.gui.book.features.FeatureImage",
            "properties": {
              "path": "enchiridion:images/Craft_To_The_Future__The_Features/market2.png"
            }
          },
          "isLocked": false,
          "isHidden": false,
          "layerIndex": 4
        },
        {
          "xPos": 38,
          "yPos": 13,
          "width": 143.0,
          "height": 24.0,
          "feature": {
            "class": "joshie.enchiridion.gui.book.features.FeatureImage",
            "properties": {
              "path": "enchiridion:images/Craft_To_The_Future__The_Features/economy.png"
            }
          },
          "isLocked": false,
          "isHidden": false,
          "layerIndex": 5
        },
        {
          "xPos": 233,
          "yPos": 22,
          "width": 172.0,
          "height": 92.0,
          "feature": {
            "class": "joshie.enchiridion.gui.book.features.FeatureImage",
            "properties": {
              "path": "enchiridion:images/Craft_To_The_Future__The_Features/mall2.png"
            }
          },
          "isLocked": false,
          "isHidden": false,
          "layerIndex": 6
        },
        {
          "xPos": 232,
          "yPos": 119,
          "width": 172.0,
          "height": 81.0,
          "feature": {
            "class": "joshie.enchiridion.gui.book.features.FeatureText",
            "properties": {
              "text": "   The International Trade Market is located at the Twin Pines Asteroid Mall.  This small strip mall is one of many trade hubs throughout the galaxy, but the only one close enough for you to access.  It is located on an asteroid large enough to be it\u0027s own planet.",
              "size": 1.0
            }
          },
          "isLocked": false,
          "isHidden": false,
          "layerIndex": 7
        }
      ],
      "pageNumber": 8,
      "isScrollable": false
    },
    {
      "features": [
        {
          "xPos": 21,
          "yPos": 200,
          "width": 18.0,
          "height": 10.0,
          "feature": {
            "class": "joshie.enchiridion.gui.book.features.FeatureButton",
            "properties": {
              "action": {
                "class": "joshie.enchiridion.gui.book.buttons.actions.ActionPreviousPage",
                "properties": {}
              },
              "size": 1.0,
              "leftClick": true,
              "rightClick": true,
              "otherClick": false,
              "tooltip": "",
              "hoverText": "",
              "hoverXOffset": 0,
              "hoverYOffset": 0,
              "unhoveredText": "",
              "unhoveredXOffset": 0,
              "unhoveredYOffset": 0,
              "hoveredResource": "enchiridion:textures/books/arrow_left_on.png",
              "unhoveredResource": "enchiridion:textures/books/arrow_left_off.png"
            }
          },
          "isLocked": true,
          "isHidden": false,
          "layerIndex": 0
        },
        {
          "xPos": 387,
          "yPos": 200,
          "width": 18.0,
          "height": 10.0,
          "feature": {
            "class": "joshie.enchiridion.gui.book.features.FeatureButton",
            "properties": {
              "action": {
                "class": "joshie.enchiridion.gui.book.buttons.actions.ActionNextPage",
                "properties": {}
              },
              "size": 1.0,
              "leftClick": true,
              "rightClick": true,
              "otherClick": false,
              "tooltip": "",
              "hoverText": "",
              "hoverXOffset": 0,
              "hoverYOffset": 0,
              "unhoveredText": "",
              "unhoveredXOffset": 0,
              "unhoveredYOffset": 0,
              "hoveredResource": "enchiridion:textures/books/arrow_right_on.png",
              "unhoveredResource": "enchiridion:textures/books/arrow_right_off.png"
            }
          },
          "isLocked": true,
          "isHidden": false,
          "layerIndex": 1
        },
        {
          "xPos": 27,
          "yPos": 15,
          "width": 161.0,
          "height": 20.0,
          "feature": {
            "class": "joshie.enchiridion.gui.book.features.FeatureImage",
            "properties": {
              "path": "enchiridion:images/Craft_To_The_Future__The_Features/space.png"
            }
          },
          "isLocked": false,
          "isHidden": false,
          "layerIndex": 2
        },
        {
          "xPos": 45,
          "yPos": 43,
          "width": 145.0,
          "height": 71.0,
          "feature": {
            "class": "joshie.enchiridion.gui.book.features.FeatureText",
            "properties": {
              "text": "     Space Travel and \nThe Beyond Time Era have        not been Implemented \n         in this Demo.",
              "size": 1.0
            }
          },
          "isLocked": false,
          "isHidden": false,
          "layerIndex": 3
        }
      ],
      "pageNumber": 10,
      "isScrollable": false
    },
    {
      "features": [
        {
          "xPos": 21,
          "yPos": 200,
          "width": 18.0,
          "height": 10.0,
          "feature": {
            "class": "joshie.enchiridion.gui.book.features.FeatureButton",
            "properties": {
              "action": {
                "class": "joshie.enchiridion.gui.book.buttons.actions.ActionPreviousPage",
                "properties": {}
              },
              "size": 1.0,
              "leftClick": true,
              "rightClick": true,
              "otherClick": false,
              "tooltip": "",
              "hoverText": "",
              "hoverXOffset": 0,
              "hoverYOffset": 0,
              "unhoveredText": "",
              "unhoveredXOffset": 0,
              "unhoveredYOffset": 0,
              "hoveredResource": "enchiridion:textures/books/arrow_left_on.png",
              "unhoveredResource": "enchiridion:textures/books/arrow_left_off.png"
            }
          },
          "isLocked": true,
          "isHidden": false,
          "layerIndex": 0
        },
        {
          "xPos": 387,
          "yPos": 200,
          "width": 18.0,
          "height": 10.0,
          "feature": {
            "class": "joshie.enchiridion.gui.book.features.FeatureButton",
            "properties": {
              "action": {
                "class": "joshie.enchiridion.gui.book.buttons.actions.ActionNextPage",
                "properties": {}
              },
              "size": 1.0,
              "leftClick": true,
              "rightClick": true,
              "otherClick": false,
              "tooltip": "",
              "hoverText": "",
              "hoverXOffset": 0,
              "hoverYOffset": 0,
              "unhoveredText": "",
              "unhoveredXOffset": 0,
              "unhoveredYOffset": 0,
              "hoveredResource": "enchiridion:textures/books/arrow_right_on.png",
              "unhoveredResource": "enchiridion:textures/books/arrow_right_off.png"
            }
          },
          "isLocked": true,
          "isHidden": false,
          "layerIndex": 1
        },
        {
          "xPos": 267,
          "yPos": -15,
          "width": 137.0,
          "height": 137.0,
          "feature": {
            "class": "joshie.enchiridion.gui.book.features.FeatureImage",
            "properties": {
              "path": "enchiridion:images/Craft_To_The_Future__The_Features/delorean.png"
            }
          },
          "isLocked": false,
          "isHidden": false,
          "layerIndex": 2
        },
        {
          "xPos": 24,
          "yPos": 17,
          "width": 172.0,
          "height": 22.0,
          "feature": {
            "class": "joshie.enchiridion.gui.book.features.FeatureImage",
            "properties": {
              "path": "enchiridion:images/Craft_To_The_Future__The_Features/time2.png"
            }
          },
          "isLocked": false,
          "isHidden": false,
          "layerIndex": 3
        },
        {
          "xPos": 26,
          "yPos": 42,
          "width": 173.0,
          "height": 69.0,
          "feature": {
            "class": "joshie.enchiridion.gui.book.features.FeatureText",
            "properties": {
              "text": "   Tyrian has been a Time Warden for as long as Time itself.  He has given you a guide book which will lead you through the process of travelling through time to change the future.  Your actions will craft a new future, and save the Earth from it\u0027s would-be annihilation.",
              "size": 1.0
            }
          },
          "isLocked": false,
          "isHidden": false,
          "layerIndex": 4
        },
        {
          "xPos": 226,
          "yPos": 98,
          "width": 182.0,
          "height": 104.0,
          "feature": {
            "class": "joshie.enchiridion.gui.book.features.FeatureText",
            "properties": {
              "text": "  There will be multiple means of time travel available throughout your journey.  The first though, will be to fashion The Delorean, it\u0027s organic Bio Fuel, and the track to launch the vehicle, complete with a 1.21 Gigawatt boost strip to get you to 88mph, triggering your Time Warp!  When you reach the earliest time era, The Dawning, the vast resources will give you even more time travel options.  ",
              "size": 1.0
            }
          },
          "isLocked": false,
          "isHidden": false,
          "layerIndex": 5
        },
        {
          "xPos": 227,
          "yPos": 45,
          "width": 42.0,
          "height": 23.0,
          "feature": {
            "class": "joshie.enchiridion.gui.book.features.FeatureImage",
            "properties": {
              "path": "enchiridion:images/Craft_To_The_Future__The_Features/disc.png"
            }
          },
          "isLocked": false,
          "isHidden": false,
          "layerIndex": 6
        },
        {
          "xPos": 29,
          "yPos": 114,
          "width": 163.0,
          "height": 90.0,
          "feature": {
            "class": "joshie.enchiridion.gui.book.features.FeatureImage",
            "properties": {
              "path": "enchiridion:images/Craft_To_The_Future__The_Features/track2.png"
            }
          },
          "isLocked": false,
          "isHidden": false,
          "layerIndex": 7
        }
      ],
      "pageNumber": 9,
      "isScrollable": false
    },
    {
      "features": [
        {
          "xPos": 21,
          "yPos": 200,
          "width": 18.0,
          "height": 10.0,
          "feature": {
            "class": "joshie.enchiridion.gui.book.features.FeatureButton",
            "properties": {
              "action": {
                "class": "joshie.enchiridion.gui.book.buttons.actions.ActionPreviousPage",
                "properties": {}
              },
              "size": 1.0,
              "leftClick": true,
              "rightClick": true,
              "otherClick": false,
              "tooltip": "",
              "hoverText": "",
              "hoverXOffset": 0,
              "hoverYOffset": 0,
              "unhoveredText": "",
              "unhoveredXOffset": 0,
              "unhoveredYOffset": 0,
              "hoveredResource": "enchiridion:textures/books/arrow_left_on.png",
              "unhoveredResource": "enchiridion:textures/books/arrow_left_off.png"
            }
          },
          "isLocked": true,
          "isHidden": false,
          "layerIndex": 0
        },
        {
          "xPos": 387,
          "yPos": 200,
          "width": 18.0,
          "height": 10.0,
          "feature": {
            "class": "joshie.enchiridion.gui.book.features.FeatureButton",
            "properties": {
              "action": {
                "class": "joshie.enchiridion.gui.book.buttons.actions.ActionNextPage",
                "properties": {}
              },
              "size": 1.0,
              "leftClick": true,
              "rightClick": true,
              "otherClick": false,
              "tooltip": "",
              "hoverText": "",
              "hoverXOffset": 0,
              "hoverYOffset": 0,
              "unhoveredText": "",
              "unhoveredXOffset": 0,
              "unhoveredYOffset": 0,
              "hoveredResource": "enchiridion:textures/books/arrow_right_on.png",
              "unhoveredResource": "enchiridion:textures/books/arrow_right_off.png"
            }
          },
          "isLocked": true,
          "isHidden": false,
          "layerIndex": 1
        },
        {
          "xPos": 25,
          "yPos": 112,
          "width": 87.0,
          "height": 87.0,
          "feature": {
            "class": "joshie.enchiridion.gui.book.features.FeatureImage",
            "properties": {
              "path": "enchiridion:images/Craft_To_The_Future__The_Features/almanac.png"
            }
          },
          "isLocked": false,
          "isHidden": false,
          "layerIndex": 2
        },
        {
          "xPos": 84,
          "yPos": 73,
          "width": 119.0,
          "height": 95.0,
          "feature": {
            "class": "joshie.enchiridion.gui.book.features.FeatureImage",
            "properties": {
              "path": "enchiridion:images/Craft_To_The_Future__The_Features/almanacbp.png"
            }
          },
          "isLocked": false,
          "isHidden": false,
          "layerIndex": 3
        },
        {
          "xPos": 230,
          "yPos": 112,
          "width": 80.0,
          "height": 92.0,
          "feature": {
            "class": "joshie.enchiridion.gui.book.features.FeatureImage",
            "properties": {
              "path": "enchiridion:images/Craft_To_The_Future__The_Features/fluidic.png"
            }
          },
          "isLocked": false,
          "isHidden": false,
          "layerIndex": 4
        },
        {
          "xPos": 304,
          "yPos": 69,
          "width": 108.0,
          "height": 88.0,
          "feature": {
            "class": "joshie.enchiridion.gui.book.features.FeatureImage",
            "properties": {
              "path": "enchiridion:images/Craft_To_The_Future__The_Features/fluidicbp.png"
            }
          },
          "isLocked": false,
          "isHidden": false,
          "layerIndex": 5
        },
        {
          "xPos": 24,
          "yPos": 18,
          "width": 167.0,
          "height": 104.0,
          "feature": {
            "class": "joshie.enchiridion.gui.book.features.FeatureText",
            "properties": {
              "text": "   The MM Blueprints do a great job of giving you a parts list for the multiblock you are building.  However, certain addon parts may not be displayed properly due to their complexity, such as the Opinium\nCore shown\nbelow.",
              "size": 1.0
            }
          },
          "isLocked": false,
          "isHidden": false,
          "layerIndex": 6
        },
        {
          "xPos": 116,
          "yPos": 169,
          "width": 87.0,
          "height": 43.0,
          "feature": {
            "class": "joshie.enchiridion.gui.book.features.FeatureText",
            "properties": {
              "text": "Keep this guide to reference final machine layouts.",
              "size": 1.0
            }
          },
          "isLocked": false,
          "isHidden": false,
          "layerIndex": 7
        },
        {
          "xPos": 232,
          "yPos": 14,
          "width": 175.0,
          "height": 84.0,
          "feature": {
            "class": "joshie.enchiridion.gui.book.features.FeatureText",
            "properties": {
              "text": "     The parts of the Modular Machinery can be customized without jeapordizing the build.  For example, adding filters and servos onto the fluiducts below.  You can even upgrade the TE tanks to hold more MB of \nfluid.  The GUI\nwill confirm if\nthe structure\nis valid.",
              "size": 1.0
            }
          },
          "isLocked": false,
          "isHidden": false,
          "layerIndex": 8
        },
        {
          "xPos": 312,
          "yPos": 160,
          "width": 98.0,
          "height": 41.0,
          "feature": {
            "class": "joshie.enchiridion.gui.book.features.FeatureText",
            "properties": {
              "text": "A new multiblock will usually change it\u0027s colors when the structure is formed properly.",
              "size": 1.0
            }
          },
          "isLocked": false,
          "isHidden": false,
          "layerIndex": 9
        }
      ],
      "pageNumber": 6,
      "isScrollable": false
    }
  ]
}