{
  "modid": "",
  "uniqueName": "Your_Time_Is_Now",
  "saveName": "Your_Time_Is_Now",
  "displayName": "Your Time Is Now",
  "displayInfo": "",
  "colorHex": "FFFFFFFF",
  "language": "en_us",
  "hasCustomIcon": true,
  "showBackground": true,
  "legacyTexture": false,
  "backgroundResource": "enchiridion:textures/books/rustic2.png",
  "BACKGROUND_START_X": -10,
  "BACKGROUND_START_Y": -10,
  "BACKGROUND_END_X": 440,
  "BACKGROUND_END_Y": 240,
  "defaultPage": 0,
  "isLocked": false,
  "forgetPageOnClose": false,
  "book": [
    {
      "features": [
        {
          "xPos": 21,
          "yPos": 200,
          "width": 18.0,
          "height": 10.0,
          "feature": {
            "class": "joshie.enchiridion.gui.book.features.FeatureButton",
            "properties": {
              "action": {
                "class": "joshie.enchiridion.gui.book.buttons.actions.ActionPreviousPage",
                "properties": {}
              },
              "size": 1.0,
              "leftClick": true,
              "rightClick": true,
              "otherClick": false,
              "tooltip": "",
              "hoverText": "",
              "hoverXOffset": 0,
              "hoverYOffset": 0,
              "unhoveredText": "",
              "unhoveredXOffset": 0,
              "unhoveredYOffset": 0,
              "hoveredResource": "enchiridion:textures/books/arrow_left_on.png",
              "unhoveredResource": "enchiridion:textures/books/arrow_left_off.png"
            }
          },
          "isLocked": true,
          "isHidden": false,
          "layerIndex": 0
        },
        {
          "xPos": 387,
          "yPos": 200,
          "width": 18.0,
          "height": 10.0,
          "feature": {
            "class": "joshie.enchiridion.gui.book.features.FeatureButton",
            "properties": {
              "action": {
                "class": "joshie.enchiridion.gui.book.buttons.actions.ActionNextPage",
                "properties": {}
              },
              "size": 1.0,
              "leftClick": true,
              "rightClick": true,
              "otherClick": false,
              "tooltip": "",
              "hoverText": "",
              "hoverXOffset": 0,
              "hoverYOffset": 0,
              "unhoveredText": "",
              "unhoveredXOffset": 0,
              "unhoveredYOffset": 0,
              "hoveredResource": "enchiridion:textures/books/arrow_right_on.png",
              "unhoveredResource": "enchiridion:textures/books/arrow_right_off.png"
            }
          },
          "isLocked": true,
          "isHidden": false,
          "layerIndex": 1
        },
        {
          "xPos": 22,
          "yPos": 17,
          "width": 177.0,
          "height": 174.0,
          "feature": {
            "class": "joshie.enchiridion.gui.book.features.FeatureText",
            "properties": {
              "text": "      If you are reading this, my plan has been set in place.  There is much to cover, and you are short on time.  Some of these things I am about to tell you may be difficult to accept, but the reality remains the same... you are the last hope.\n      The last thing you probably recall was fighting Titans of the Dragonflight to prepare a safe haven for your family.  I\u0027m sorry to say, your efforts were for naught.  The Old Gods, who were exiled by the Dragonflight an eternity ago during the Great War returned.  When they came to know of the Dragonflight\u0027s venture to earth, they followed with vengeance.",
              "size": 1.0
            }
          },
          "isLocked": false,
          "isHidden": false,
          "layerIndex": 2
        },
        {
          "xPos": 236,
          "yPos": 18,
          "width": 168.0,
          "height": 97.0,
          "feature": {
            "class": "joshie.enchiridion.gui.book.features.FeatureImage",
            "properties": {
              "path": "enchiridion:images/Your_Time_Is_Now/maxresdefault (1).jpg"
            }
          },
          "isLocked": false,
          "isHidden": false,
          "layerIndex": 3
        },
        {
          "xPos": 230,
          "yPos": 120,
          "width": 179.0,
          "height": 80.0,
          "feature": {
            "class": "joshie.enchiridion.gui.book.features.FeatureText",
            "properties": {
              "text": "    They refused to accept that the Dragonflight had been defeated, and scorched the Earth in a wave of flames.  Their selfish efforts to stamp the Dragonflight from existence cost an unfathombale amount of lives.  The Earth, as you remember it, is no more. ",
              "size": 1.0
            }
          },
          "isLocked": false,
          "isHidden": false,
          "layerIndex": 4
        }
      ],
      "pageNumber": 0,
      "isScrollable": false
    },
    {
      "features": [
        {
          "xPos": 21,
          "yPos": 200,
          "width": 18.0,
          "height": 10.0,
          "feature": {
            "class": "joshie.enchiridion.gui.book.features.FeatureButton",
            "properties": {
              "action": {
                "class": "joshie.enchiridion.gui.book.buttons.actions.ActionPreviousPage",
                "properties": {}
              },
              "size": 1.0,
              "leftClick": true,
              "rightClick": true,
              "otherClick": false,
              "tooltip": "",
              "hoverText": "",
              "hoverXOffset": 0,
              "hoverYOffset": 0,
              "unhoveredText": "",
              "unhoveredXOffset": 0,
              "unhoveredYOffset": 0,
              "hoveredResource": "enchiridion:textures/books/arrow_left_on.png",
              "unhoveredResource": "enchiridion:textures/books/arrow_left_off.png"
            }
          },
          "isLocked": true,
          "isHidden": false,
          "layerIndex": 0
        },
        {
          "xPos": 387,
          "yPos": 200,
          "width": 18.0,
          "height": 10.0,
          "feature": {
            "class": "joshie.enchiridion.gui.book.features.FeatureButton",
            "properties": {
              "action": {
                "class": "joshie.enchiridion.gui.book.buttons.actions.ActionNextPage",
                "properties": {}
              },
              "size": 1.0,
              "leftClick": true,
              "rightClick": true,
              "otherClick": false,
              "tooltip": "",
              "hoverText": "",
              "hoverXOffset": 0,
              "hoverYOffset": 0,
              "unhoveredText": "",
              "unhoveredXOffset": 0,
              "unhoveredYOffset": 0,
              "hoveredResource": "enchiridion:textures/books/arrow_right_on.png",
              "unhoveredResource": "enchiridion:textures/books/arrow_right_off.png"
            }
          },
          "isLocked": true,
          "isHidden": false,
          "layerIndex": 1
        },
        {
          "xPos": 24,
          "yPos": 21,
          "width": 169.0,
          "height": 174.4251497005988,
          "feature": {
            "class": "joshie.enchiridion.gui.book.features.FeatureImage",
            "properties": {
              "path": "enchiridion:images/Your_Time_Is_Now/after.jpg"
            }
          },
          "isLocked": false,
          "isHidden": false,
          "layerIndex": 2
        },
        {
          "xPos": 228,
          "yPos": 21,
          "width": 182.0,
          "height": 187.0,
          "feature": {
            "class": "joshie.enchiridion.gui.book.features.FeatureText",
            "properties": {
              "text": "     You may be asking who I am.  My name is Tyrian.  A neutral Time Warden.  I care not for the allegiences of the Old Gods or the Dragonflight.  My concern is solely with balance and time.  The Old God\u0027s destruction of the planet Earth has disrupted the Time Balance.  I saved you from the destruction, placing you in this protective bunker to survive the Scorching.  \n      You must prepare yourself.  For when you emerge on the surface, you will see an earth void of any resemblance of it\u0027s former vibrance.  It is now a desolate wasteland of dry and arrid charcoal... scorched of most life.  I call this era of Earth, \"The After\".",
              "size": 1.0
            }
          },
          "isLocked": false,
          "isHidden": false,
          "layerIndex": 3
        }
      ],
      "pageNumber": 1,
      "isScrollable": false
    },
    {
      "features": [
        {
          "xPos": 21,
          "yPos": 200,
          "width": 18.0,
          "height": 10.0,
          "feature": {
            "class": "joshie.enchiridion.gui.book.features.FeatureButton",
            "properties": {
              "action": {
                "class": "joshie.enchiridion.gui.book.buttons.actions.ActionPreviousPage",
                "properties": {}
              },
              "size": 1.0,
              "leftClick": true,
              "rightClick": true,
              "otherClick": false,
              "tooltip": "",
              "hoverText": "",
              "hoverXOffset": 0,
              "hoverYOffset": 0,
              "unhoveredText": "",
              "unhoveredXOffset": 0,
              "unhoveredYOffset": 0,
              "hoveredResource": "enchiridion:textures/books/arrow_left_on.png",
              "unhoveredResource": "enchiridion:textures/books/arrow_left_off.png"
            }
          },
          "isLocked": true,
          "isHidden": false,
          "layerIndex": 0
        },
        {
          "xPos": 387,
          "yPos": 200,
          "width": 18.0,
          "height": 10.0,
          "feature": {
            "class": "joshie.enchiridion.gui.book.features.FeatureButton",
            "properties": {
              "action": {
                "class": "joshie.enchiridion.gui.book.buttons.actions.ActionNextPage",
                "properties": {}
              },
              "size": 1.0,
              "leftClick": true,
              "rightClick": true,
              "otherClick": false,
              "tooltip": "",
              "hoverText": "",
              "hoverXOffset": 0,
              "hoverYOffset": 0,
              "unhoveredText": "",
              "unhoveredXOffset": 0,
              "unhoveredYOffset": 0,
              "hoveredResource": "enchiridion:textures/books/arrow_right_on.png",
              "unhoveredResource": "enchiridion:textures/books/arrow_right_off.png"
            }
          },
          "isLocked": true,
          "isHidden": false,
          "layerIndex": 1
        },
        {
          "xPos": 231,
          "yPos": 25,
          "width": 176.0,
          "height": 160.0,
          "feature": {
            "class": "joshie.enchiridion.gui.book.features.FeatureImage",
            "properties": {
              "path": "enchiridion:images/Your_Time_Is_Now/dawning.jpg"
            }
          },
          "isLocked": false,
          "isHidden": false,
          "layerIndex": 2
        },
        {
          "xPos": 18,
          "yPos": 19,
          "width": 184.0,
          "height": 182.0,
          "feature": {
            "class": "joshie.enchiridion.gui.book.features.FeatureText",
            "properties": {
              "text": "   There is still hope.  You were saved from the destruction for a purpose. Your resolve in fighting the Dragonflight long ago has proven your resolve.  If there is any chance for a restoration of Earth, it lies with you.\n    I have given you a taskbook, filled with knowledge and processes.   You are now an ambassador for the Time Wardens.   As neutral entities, we can not take direct action.  So you will use the knowledge I have given you to build a machine to take you back in time, to \"The Dawning\".  A time before the Dragonflight had descended to earth.  The lush landscape of the restored Earth will give you the Resources you need to complete the next step in our plan. ",
              "size": 1.0
            }
          },
          "isLocked": false,
          "isHidden": false,
          "layerIndex": 3
        }
      ],
      "pageNumber": 2,
      "isScrollable": false
    },
    {
      "features": [
        {
          "xPos": 21,
          "yPos": 200,
          "width": 18.0,
          "height": 10.0,
          "feature": {
            "class": "joshie.enchiridion.gui.book.features.FeatureButton",
            "properties": {
              "action": {
                "class": "joshie.enchiridion.gui.book.buttons.actions.ActionPreviousPage",
                "properties": {}
              },
              "size": 1.0,
              "leftClick": true,
              "rightClick": true,
              "otherClick": false,
              "tooltip": "",
              "hoverText": "",
              "hoverXOffset": 0,
              "hoverYOffset": 0,
              "unhoveredText": "",
              "unhoveredXOffset": 0,
              "unhoveredYOffset": 0,
              "hoveredResource": "enchiridion:textures/books/arrow_left_on.png",
              "unhoveredResource": "enchiridion:textures/books/arrow_left_off.png"
            }
          },
          "isLocked": true,
          "isHidden": false,
          "layerIndex": 0
        },
        {
          "xPos": 387,
          "yPos": 200,
          "width": 18.0,
          "height": 10.0,
          "feature": {
            "class": "joshie.enchiridion.gui.book.features.FeatureButton",
            "properties": {
              "action": {
                "class": "joshie.enchiridion.gui.book.buttons.actions.ActionNextPage",
                "properties": {}
              },
              "size": 1.0,
              "leftClick": true,
              "rightClick": true,
              "otherClick": false,
              "tooltip": "",
              "hoverText": "",
              "hoverXOffset": 0,
              "hoverYOffset": 0,
              "unhoveredText": "",
              "unhoveredXOffset": 0,
              "unhoveredYOffset": 0,
              "hoveredResource": "enchiridion:textures/books/arrow_right_on.png",
              "unhoveredResource": "enchiridion:textures/books/arrow_right_off.png"
            }
          },
          "isLocked": true,
          "isHidden": false,
          "layerIndex": 1
        },
        {
          "xPos": 229,
          "yPos": 27,
          "width": 178.0,
          "height": 120.54035087719285,
          "feature": {
            "class": "joshie.enchiridion.gui.book.features.FeatureImage",
            "properties": {
              "path": "enchiridion:images/Your_Time_Is_Now/Gold_Deco_Border_Frame_Transparent_PNG_Image.png"
            }
          },
          "isLocked": false,
          "isHidden": false,
          "layerIndex": 2
        },
        {
          "xPos": 32,
          "yPos": 21,
          "width": 154.0,
          "height": 159.0,
          "feature": {
            "class": "joshie.enchiridion.gui.book.features.FeatureText",
            "properties": {
              "text": "   With your determination, and our guidance we may just be able to restore the Earth.  By going back in time, and utilizing the resources found on the untainted earth, you will be able to craft the necessary tools to confront the Old Gods and Dragonflight before the Great War.  You may be able to save the Future.  If you can prevent the Dragonflight from ever descending to Earth, the Scorchign will never occur, and life as you remember it, will have been unhindered.  It\u0027s time to...\n\n     Craft To The Future",
              "size": 1.0
            }
          },
          "isLocked": false,
          "isHidden": false,
          "layerIndex": 3
        },
        {
          "xPos": 241,
          "yPos": 158,
          "width": 155.0,
          "height": 23.0,
          "feature": {
            "class": "joshie.enchiridion.gui.book.features.FeatureText",
            "properties": {
              "text": "Do it for your beautiful family.",
              "size": 1.0
            }
          },
          "isLocked": false,
          "isHidden": false,
          "layerIndex": 4
        }
      ],
      "pageNumber": 3,
      "isScrollable": false
    }
  ],
  "defaultIDs": [
    "enchiridion_default_buttons"
  ]
}