{
    "machine": "creocoke_blaster",
    "registryName": "creocoke_blaster_magma_cream",
    "recipeTime": 300,
    "requirements": [
        {
            "type": "item",
            "io-type": "input",
            "item": "immersiveengineering:material@6",
            "amount": 1
        },
                {
            "type": "item",
            "io-type": "input",
            "item": "thermalfoundation:material@864",
            "amount": 1
        },
                {
            "type": "item",
            "io-type": "input",
            "item": "minecraft:lava_bucket",
            "amount": 1
        },
        {
            "type": "item",
            "io-type": "output",
            "item": "minecraft:magma_cream",
            "amount": 2
        }
    ]
}