{
    "machine": "rejuvenator",
    "registryName": "rejuvenator_dirt",
    "recipeTime": 60,
    "requirements": [
        {
            "type": "fluid",
            "io-type": "input",
            "fluid": "water",
            "amount": 100
        },
                {
            "type": "item",
            "io-type": "input",
            "item": "biomesoplenty:dried_sand",
            "amount": 2
        },
                {
            "type": "item",
            "io-type": "output",
            "item": "minecraft:sand",
            "amount": 1,
            "chance": 0.7
        },
            {
            "type": "item",
            "io-type": "output",
            "item": "minecraft:clay",
            "amount": 1,
            "chance": 0.3
        },
            {
            "type": "item",
            "io-type": "output",
            "item": "minecraft:brown_mushroom",
            "amount": 1,
            "chance": 0.1
        },
            {
            "type": "item",
            "io-type": "output",
            "item": "minecraft:potato",
            "amount": 1,
            "chance": 0.2
        },
            {
            "type": "item",
            "io-type": "output",
            "item": "immersiveengineering:material@4",
            "amount": 1,
            "chance": 0.3
        },
            {
            "type": "item",
            "io-type": "output",
            "item": "industrialforegoing:tinydryrubber",
            "amount": 1,
            "chance": 0.7
        }





    ]
}