[
  	
//Dimension 0 Overworld
    {
    "dimension": 0,
    "mob": "animalium:wild_dog",  
    "mincount": "8",
    "result": "deny"
  },
    {
    "dimension": 0,
    "mob": "Creeper",  
    "mincount": "8",
    "result": "deny"
  },
      {
    "dimension": 0,
    "mob": "Zombie",  
    "mincount": "23",
    "result": "deny"
  },
  {
    "dimension": 0,
    "mob": "grimoireofgaia:anubis",  
    "mincount": "2",
    "result": "deny"
  },
  {
    "dimension": 0,
    "mob": "Enderman",  
    "mincount": "4",
    "result": "deny"
  },
      {
    "dimension": 0,
    "mob": "Skeleton",  
    "mincount": "15",
    "result": "deny"
  },
        {
    "dimension": 0,
    "mob": "grimoireofgaia:vampire",  
    "mincount": "1",
    "result": "deny"
  },
        {
    "dimension": 1,
    "mob": "tradeasteroid:cupidblaze",  
    "mincount": "2",
    "result": "deny"
  },
      {
    "dimension": 0,
    "mob": "Creeper",  
    "mincount": "8",
    "result": "deny"
  },
      {
      	"dimension": 0,
    "mob": ["Skeleton","Zombie"],
    "result": "default",
    "random": 0.2,
    "armorhelmet": ["minecraft:leather_helmet", "minecraft:chainmail_helmet"],
    "armorlegs": ["minecraft:chainmail_leggings", "minecraft:golden_leggings"]
  },
    {
    	"dimension": 0,
    "mob": ["Skeleton","Zombie"],
    "result": "default",
    "random": 0.6,
    "armorchest": ["minecraft:iron_chestplate", "minecraft:golden_chestplate", "minecraft:leather_chestplate"],
    "armorboots": ["minecraft:iron_boots", "minecraft:golden_boots"]
  },

    {
    "dimension": 0,
    "mob": "animalium:bear",  
    "mincount": "2",
    "result": "deny",
    "healthmultiply": 8

  },
{
    "dimension": 0,
    "mob": "Cow",  
    "mincount": "20",
    "result": "deny"
  },
    {
    "dimension": 0,
    "mob": "Pig",  
    "mincount": "20",
    "result": "deny"
  },
    {
    "dimension": 0,
    "mob": "Sheep",  
    "mincount": "20",
    "result": "deny"
  },
      {
    "dimension": 0,
    "mob": "deeznuts:dncreeper",  
    "mincount": "4",
    "result": "deny"
  },
        {
    "dimension": 1,
    "mob": "deeznuts:dncreeper",  
    "result": "deny"
  },
    {
    "dimension": 0,
    "mob": "minecraft:llama",  
    "mincount": "12",
    "result": "deny"
  },
      {
    "dimension": 0,
    "mob": "thaumcraft:cultistcleric",  
    "mincount": "4",
    "result": "deny"
  },
                {
    "dimension": 0,
    "mob": "chickens:chickenschicken",
    "mincount": "20",
    "result": "deny"
  },

//Dimension 5 The After
        {
    "dimension": 5,
    "mob": "biomesoplenty:wasp",
    "mincount": "4",
    "result": "deny"
  },
    {
    "dimension": 5,
    "mob": "minecraft:magma_cube",
    "mincount": "4",
    "result": "deny"
  },
{
    "dimension": 5,
    "mob": "minecraft:blaze",  
    "result": "deny"
  },
    {
    "dimension": 5,
    "mob": "thermalfoundation:basalz",  
    "result": "deny"
  },
      {
    "dimension": 5,
    "mob": "Spider",  
    "result": "deny"
  },
        {
    "dimension": 5,
    "mob": "deeznuts:dncreeper",  
    "result": "deny"
  },
        {
    "dimension": 5,
    "mob": "Zombie",
    "mincount": "0",  
    "result": "deny"
  },
          {
    "dimension": 5,
    "mob": "Skeleton",
    "mincount": "0",  
    "result": "deny"
  },
            {
    "dimension": 5,
    "mob": "Enderman",  
    "result": "deny"
  },
          {
    "dimension": 5,
    "mob": "Creeper",  
    "result": "deny"
  },
            {
    "dimension": 5,
    "mob": "minecraft:zombie_villager",  
    "result": "deny"
  },
            {
    "dimension": 5,
    "mob": "grimoireofgaia:cobblestone_golem",
    "mincount": "4",  
    "result": "deny"
  },
          {
    "dimension": 5,
    "mob": "chickens:chickenschicken",  
    "result": "deny"
  },
              {
    "dimension": 5,
    "mob": "Witch",  
    "result": "deny"
  },

  // Dimension -1 Nether
            {
    "dimension": -1,
    "mob": "chickens:chickenschicken",
    "mincount": "8",
    "result": "deny"
  },

  //Dimension Misc and Galacticraft
  
   	{
    "dimension": 144,  
    "result": "deny"
  },
    {
    "dimension": 7,
    "mob": "chickens:chickenschicken",  
    "result": "deny"
  },
   {
    "dimension": -22,
    "mob": "Chicken",
    "result": "deny"
  },
            {
    "dimension": -22,
    "mob": "Cow",
    "result": "deny"
  },
            {
    "dimension": -22,
    "mob": "Sheep",
    "result": "deny"
  },
              {
    "dimension": -22,
    "mob": "Pig",
    "result": "deny"
  }
]

