{
	"name": "protein",
	"icon": "minecraft:cooked_beef",
	"color": "db6c23",
	"enabled": true,
	"food": {
		"oredict": [
			"cropChestnut",
			"cropWalnut",
			"egg",
			"foodBoiledegg",
			"foodClamcooked",
			"foodClamraw",
			"foodCrabcooked",
			"foodCrabraw",
			"foodCrayfishcooked",
			"foodCrayfishraw",
			"foodEelraw",
			"foodFilledhoneycomb",
			"foodFirmtofu",
			"foodFriedegg",
			"foodFrogcooked",
			"foodFrograw",
			"foodOctopuscooked",
			"foodOctopusraw",
			"foodScallopcooked",
			"foodScallopraw",
			"foodShrimpcooked",
			"foodShrimpraw",
			"foodSilkentofu",
			"foodSnailcooked",
			"foodSnailraw",
			"foodTurtlecooked",
			"foodTurtleraw",
			"listAllfishcooked",
			"listAllfishraw",
			"listAllmeatcooked",
			"listAllmeatraw",
			"listAllnut",
			"listAllnutbutter",
			"portionFish",
			"portionMeat"
		],
		"items": [
			"actuallyadditions:item_food:0",
			"actuallyadditions:item_food:3",
			"actuallyadditions:item_food:8",
			"actuallyadditions:item_food:11",
			"actuallyadditions:item_food:13",
			"actuallyadditions:item_food:14",
			"actuallyadditions:item_food:20",
			"animania:bacon_omelette",
			"animania:cheese_omelette",
			"animania:cooked_prime_bacon",
			"animania:cooked_prime_steak",
			"animania:plain_omelette",
			"animania:raw_prime_bacon",
			"animania:super_omelette",
			"animania:truffle_omelette",
			"betterwithaddons:food_clownfish_cooked",
			"betterwithaddons:food_egg_cooked",
			"betterwithaddons:food_ground_meat",
			"betterwithaddons:food_meatballs",
			"betterwithaddons:food_pie_amanita",
			"betterwithaddons:food_pie_meat",
			"betterwithaddons:food_pie_melon",
			"betterwithaddons:food_pie_mushroom",
			"betterwithaddons:food_pufferfish_baked",
			"betterwithaddons:food_pufferfish_cooked",
			"betterwithaddons:food_pufferfish_prepared",
			"betterwithaddons:food_sashimi",
			"betterwithmods:apple_pie",
			"betterwithmods:bat_wing",
			"betterwithmods:beef_dinner",
			"betterwithmods:beef_potatoes",
			"betterwithmods:chicken_soup",
			"betterwithmods:chowder",
			"betterwithmods:cooked_bat_wing",
			"betterwithmods:cooked_egg",
			"betterwithmods:cooked_kebab",
			"betterwithmods:cooked_mystery_meat",
			"betterwithmods:cooked_omelet",
			"betterwithmods:cooked_scrambled_egg",
			"betterwithmods:cooked_wolf_chop",
			"betterwithmods:creeper_oyster",
			"betterwithmods:ham_and_eggs",
			"betterwithmods:hearty_stew",
			"betterwithmods:kibble",
			"betterwithmods:mystery_meat",
			"betterwithmods:pork_dinner",
			"betterwithmods:raw_egg",
			"betterwithmods:raw_kebab",
			"betterwithmods:raw_omelet",
			"betterwithmods:raw_scrambled_egg",
			"betterwithmods:tasty_sandwich",
			"betterwithmods:wolf_chop",
			"biomesoplenty:ambrosia",
			"chococraft:chocobo_drumstick_cooked",
			"chococraft:chocobo_drumstick_raw",
			"combustfish:cooled_cod",
			"combustfish:tempered_swordfish",
			"defiledlands:black_heart",
			"defiledlands:book_wyrm_cooked",
			"defiledlands:book_wyrm_raw",
			"defiledlands:scuttler_eye",
			"duckcraft:cookedduckitem",
			"duckcraft:duckbagitem",
			"duckcraft:duckbwbsitem",
			"duckcraft:duckclubsandwichitem",
			"duckcraft:duckcorncitem",
			"duckcraft:duckjerkyitem",
			"duckcraft:duckpotpieitem",
			"duckcraft:ducksoupitem",
			"duckcraft:ducktacoitem",
			"duckcraft:rawduckitem",
			"duckcraft:rdlapitem",
			"ediblebugs:cookedBugs:0",
			"ediblebugs:cookedBugs:1",
			"ediblebugs:cookedBugs:2",
			"ediblebugs:cookedBugs:3",
			"ediblebugs:cookedBugs:4",
			"ediblebugs:cookedBugs:5",
			"ediblebugs:cookedBugs:6",
			"ediblebugs:cookedBugs:7",
			"ediblebugs:cookedBugs:8",
			"ediblebugs:cookedBugs:9",
			"ediblebugs:cookedBugs:10",
			"ediblebugs:cookedBugs:11",
			"ediblebugs:cookedBugs:12",
			"ediblebugs:cookedBugs:13",
			"ediblebugs:cookedBugs:14",
			"ediblebugs:cookedBugs:15",
			"ediblebugs:cookedBugs:16",
			"ediblebugs:dirtBugs:0",
			"ediblebugs:dirtBugs:1",
			"ediblebugs:dirtBugs:2",
			"ediblebugs:dirtBugs:3",
			"ediblebugs:grassBugs:0",
			"ediblebugs:grassBugs:1",
			"ediblebugs:grassBugs:2",
			"ediblebugs:grassBugs:3",
			"ediblebugs:sandBugs:0",
			"ediblebugs:sandBugs:1",
			"ediblebugs:sandBugs:2",
			"ediblebugs:sandBugs:3",
			"ediblebugs:termite",
			"ediblebugs:woodBugs:0",
			"ediblebugs:woodBugs:1",
			"ediblebugs:woodBugs:2",
			"ediblebugs:woodBugs:3",
			"foodexpansion:itembacon",
			"foodexpansion:itembaconandegg",
			"foodexpansion:itembatwing",
			"foodexpansion:itemcarrotpie",
			"foodexpansion:itemcookedbacon",
			"foodexpansion:itemcookedbatwing",
			"foodexpansion:itemcookedhorsemeat",
			"foodexpansion:itemcookedllamameat",
			"foodexpansion:itemcookedocelotmeat",
			"foodexpansion:itemcookedparrotmeat",
			"foodexpansion:itemcookedpolarbearmeat",
			"foodexpansion:itemcookedsquid",
			"foodexpansion:itemcookedwolfmeat",
			"foodexpansion:itemfriedegg",
			"foodexpansion:itemhorsemeat",
			"foodexpansion:itemllamameat",
			"foodexpansion:itemocelotmeat",
			"foodexpansion:itemparrotmeat",
			"foodexpansion:itempolarbearmeat",
			"foodexpansion:itemsquid",
			"foodexpansion:itemwolfmeat",
			"forestry:ambrosia",
			"forestry:honeyed_slice",
			"forestry:honey_pot",
			"grimpack:apple_pie",
			"grimpack:cheese_burger",
			"grimpack:chocolate_cake",
			"grimpack:chocolate_pie",
			"grimpack:dough",
			"grimpack:eggs_cooked",
			"grimpack:eggs_mixed",
			"grimpack:eggs_unmixed",
			"grimpack:melon_pie",
			"grimpack:pork_pie",
			"grimpack:pumpkin_pie",
			"grimpack:raw_apple_pie",
			"grimpack:raw_chocolate_pie",
			"grimpack:raw_empty_pie",
			"grimpack:raw_melon_pie",
			"grimpack:raw_pork_pie",
			"grimpack:raw_pumpkin_pie",
			"harvestcraft:anchovypepperonipizzaitem",
			"harvestcraft:applejellysandwichitem",
			"harvestcraft:apricotglazedporkitem",
			"harvestcraft:apricotjellysandwichitem",
			"harvestcraft:asparagusquicheitem",
			"harvestcraft:avocadoburritoitem",
			"harvestcraft:baconandeggsitem",
			"harvestcraft:baconcheeseburgeritem",
			"harvestcraft:baconmushroomburgeritem",
			"harvestcraft:baconwrappeddatesitem",
			"harvestcraft:bakedbeansitem",
			"harvestcraft:bakedhamitem",
			"harvestcraft:baklavaitem",
			"harvestcraft:banananutbreaditem",
			"harvestcraft:bangersandmashitem",
			"harvestcraft:batteredsausageitem",
			"harvestcraft:bbqplatteritem",
			"harvestcraft:bbqpulledporkitem",
			"harvestcraft:beansandriceitem",
			"harvestcraft:beansontoastitem",
			"harvestcraft:beefjerkyitem",
			"harvestcraft:beefwellingtonitem",
			"harvestcraft:beetburgeritem",
			"harvestcraft:blackberryjellysandwichitem",
			"harvestcraft:bltitem",
			"harvestcraft:blueberryjellysandwichitem",
			"harvestcraft:blueberrymuffinitem",
			"harvestcraft:blueberrypancakesitem",
			"harvestcraft:breadedporkchopitem",
			"harvestcraft:breakfastburritoitem",
			"harvestcraft:brownieitem",
			"harvestcraft:bulgogiitem",
			"harvestcraft:buttercookieitem",
			"harvestcraft:calamarirawitem",
			"harvestcraft:californiarollitem",
			"harvestcraft:candiedpecansitem",
			"harvestcraft:candiedwalnutsitem",
			"harvestcraft:cashewchickenitem",
			"harvestcraft:celeryandpeanutbutteritem",
			"harvestcraft:cevicheitem",
			"harvestcraft:charsiuitem",
			"harvestcraft:cheeseburgeritem",
			"harvestcraft:cheesyshrimpquinoaitem",
			"harvestcraft:cherryjellysandwichitem",
			"harvestcraft:chickenandwafflesitem",
			"harvestcraft:chickencelerycasseroleitem",
			"harvestcraft:chickenchowmeinitem",
			"harvestcraft:chickencurryitem",
			"harvestcraft:chickendinneritem",
			"harvestcraft:chickengumboitem",
			"harvestcraft:chickenkatsuitem",
			"harvestcraft:chickenparmasanitem",
			"harvestcraft:chickenpotpieitem",
			"harvestcraft:chickensandwichitem",
			"harvestcraft:chikorollitem",
			"harvestcraft:chilidogitem",
			"harvestcraft:chiliitem",
			"harvestcraft:chimichangaitem",
			"harvestcraft:chocolatebaconitem",
			"harvestcraft:chocolaterollitem",
			"harvestcraft:chorizoitem",
			"harvestcraft:clamchowderitem",
			"harvestcraft:coconutshrimpitem",
			"harvestcraft:coleslawburgeritem",
			"harvestcraft:coleslawitem",
			"harvestcraft:cookedtofenisonitem",
			"harvestcraft:cornbreaditem",
			"harvestcraft:corndogitem",
			"harvestcraft:cornedbeefbreakfastitem",
			"harvestcraft:cornedbeefhashitem",
			"harvestcraft:cornedbeefitem",
			"harvestcraft:cornishpastyitem",
			"harvestcraft:cottagepieitem",
			"harvestcraft:crabkimbapitem",
			"harvestcraft:cracklinsitem",
			"harvestcraft:cranberryjellysandwichitem",
			"harvestcraft:crawfishetoufeeitem",
			"harvestcraft:crayfishsaladitem",
			"harvestcraft:creepercookieitem",
			"harvestcraft:creeperwingsitem",
			"harvestcraft:croissantitem",
			"harvestcraft:custarditem",
			"harvestcraft:datenutbreaditem",
			"harvestcraft:delightedmealitem",
			"harvestcraft:deluxecheeseburgeritem",
			"harvestcraft:deluxechickencurryitem",
			"harvestcraft:deluxenachoesitem",
			"harvestcraft:deviledeggitem",
			"harvestcraft:dimsumitem",
			"harvestcraft:durianmuffinitem",
			"harvestcraft:eggnogitem",
			"harvestcraft:eggsaladitem",
			"harvestcraft:eggsbenedictitem",
			"harvestcraft:enchiladaitem",
			"harvestcraft:epicbaconitem",
			"harvestcraft:extremechiliitem",
			"harvestcraft:figjellysandwichitem",
			"harvestcraft:fishandchipsitem",
			"harvestcraft:fishdinneritem",
			"harvestcraft:fishlettucewrapitem",
			"harvestcraft:fishsandwichitem",
			"harvestcraft:fishsticksitem",
			"harvestcraft:fishtacoitem",
			"harvestcraft:footlongitem",
			"harvestcraft:frenchtoastitem",
			"harvestcraft:friedchickenitem",
			"harvestcraft:friedgreentomatoesitem",
			"harvestcraft:friedpecanokraitem",
			"harvestcraft:friedriceitem",
			"harvestcraft:froglegstirfryitem",
			"harvestcraft:futomakiitem",
			"harvestcraft:garlicchickenitem",
			"harvestcraft:garlicsteakitem",
			"harvestcraft:generaltsochickenitem",
			"harvestcraft:gingerbreaditem",
			"harvestcraft:gingerchickenitem",
			"harvestcraft:gingeredrhubarbtartitem",
			"harvestcraft:gooseberryjellysandwichitem",
			"harvestcraft:grapefruitjellysandwichitem",
			"harvestcraft:greeneggsandhamitem",
			"harvestcraft:gumboitem",
			"harvestcraft:hamandcheesesandwichitem",
			"harvestcraft:hamandpineapplepizzaitem",
			"harvestcraft:hamburgeritem",
			"harvestcraft:hamsweetpicklesandwichitem",
			"harvestcraft:hashitem",
			"harvestcraft:heartybreakfastitem",
			"harvestcraft:holidaycake",
			"harvestcraft:holidaycakeitem",
			"harvestcraft:honeybunitem",
			"harvestcraft:honeyglazedhamitem",
			"harvestcraft:honeylemonlambitem",
			"harvestcraft:honeysandwichitem",
			"harvestcraft:honeysoyribsitem",
			"harvestcraft:hotandsoursoupitem",
			"harvestcraft:hotdishcasseroleitem",
			"harvestcraft:hotdogitem",
			"harvestcraft:hotwingsitem",
			"harvestcraft:hushpuppiesitem",
			"harvestcraft:jaffaitem",
			"harvestcraft:jambalayaitem",
			"harvestcraft:jellyfishrawitem",
			"harvestcraft:kiwijellysandwichitem",
			"harvestcraft:koreandinneritem",
			"harvestcraft:kungpaochickenitem",
			"harvestcraft:lambbarleysoupitem",
			"harvestcraft:lambkebabitem",
			"harvestcraft:lambwithmintsauceitem",
			"harvestcraft:leafychickensandwichitem",
			"harvestcraft:leafyfishsandwichitem",
			"harvestcraft:leekbaconsoupitem",
			"harvestcraft:lemonchickenitem",
			"harvestcraft:lemondrizzlecakeitem",
			"harvestcraft:lemonjellysandwichitem",
			"harvestcraft:limejellysandwichitem",
			"harvestcraft:liverandonionsitem",
			"harvestcraft:loadedbakedpotatoitem",
			"harvestcraft:mangojellysandwichitem",
			"harvestcraft:maplecandiedbaconitem",
			"harvestcraft:maplesausageitem",
			"harvestcraft:maplesyruppancakesitem",
			"harvestcraft:maplesyrupwafflesitem",
			"harvestcraft:marzipanitem",
			"harvestcraft:mcpamitem",
			"harvestcraft:meatfeastpizzaitem",
			"harvestcraft:meatloafitem",
			"harvestcraft:meatpieitem",
			"harvestcraft:meatystewitem",
			"harvestcraft:meatystirfryitem",
			"harvestcraft:mettbrotchenitem",
			"harvestcraft:mincepieitem",
			"harvestcraft:misosoupitem",
			"harvestcraft:monsterfrieddumplingsitem",
			"harvestcraft:montecristosandwichitem",
			"harvestcraft:mozzerellasticksitem",
			"harvestcraft:museliitem",
			"harvestcraft:mushroomsteakitem",
			"harvestcraft:musselcookeditem",
			"harvestcraft:musselrawitem",
			"harvestcraft:netherwingsitem",
			"harvestcraft:omeletitem",
			"harvestcraft:omuriceitem",
			"harvestcraft:onionhamburgeritem",
			"harvestcraft:orangechickenitem",
			"harvestcraft:orangeduckitem",
			"harvestcraft:orangejellysandwichitem",
			"harvestcraft:pancakesitem",
			"harvestcraft:papayajellysandwichitem",
			"harvestcraft:pavlovacake",
			"harvestcraft:pavlovaitem",
			"harvestcraft:pbandjitem",
			"harvestcraft:peaandhamsoupitem",
			"harvestcraft:peachjellysandwichitem",
			"harvestcraft:peanutbuttercookiesitem",
			"harvestcraft:pearjellysandwichitem",
			"harvestcraft:pecanpieitem",
			"harvestcraft:pekingduckitem",
			"harvestcraft:pemmicanitem",
			"harvestcraft:pepperoniitem",
			"harvestcraft:persimmonjellysandwichitem",
			"harvestcraft:pineapplehamitem",
			"harvestcraft:pineappleupsidedowncake",
			"harvestcraft:pineappleupsidedowncakeitem",
			"harvestcraft:pistachiobakedsalmonitem",
			"harvestcraft:pistachiobutteritem",
			"harvestcraft:pistachioicecreamitem",
			"harvestcraft:pizzaitem",
			"harvestcraft:ploughmanslunchitem",
			"harvestcraft:plumjellysandwichitem",
			"harvestcraft:pomegranatejellysandwichitem",
			"harvestcraft:porklettucewrapitem",
			"harvestcraft:porklomeinitem",
			"harvestcraft:porkrindsitem",
			"harvestcraft:porksausageitem",
			"harvestcraft:potatosaladitem",
			"harvestcraft:potroastitem",
			"harvestcraft:potstickersitem",
			"harvestcraft:pralinesitem",
			"harvestcraft:pumpkinmuffinitem",
			"harvestcraft:raisincookiesitem",
			"harvestcraft:randomtacoitem",
			"harvestcraft:raspberryjellysandwichitem",
			"harvestcraft:rawtofenisonitem",
			"harvestcraft:roastchickenitem",
			"harvestcraft:roastedchestnutitem",
			"harvestcraft:salisburysteakitem",
			"harvestcraft:salmonpattiesitem",
			"harvestcraft:sardinesinhotsauceitem",
			"harvestcraft:saucedlambkebabitem",
			"harvestcraft:sausagebeanmeltitem",
			"harvestcraft:sausageinbreaditem",
			"harvestcraft:sausageitem",
			"harvestcraft:sausagerollitem",
			"harvestcraft:scrambledeggitem",
			"harvestcraft:shepardspieitem",
			"harvestcraft:shrimpokrahushpuppiesitem",
			"harvestcraft:snickersbaritem",
			"harvestcraft:southernstylebreakfastitem",
			"harvestcraft:spagettiandmeatballsitem",
			"harvestcraft:spaghettidinneritem",
			"harvestcraft:spicymustardporkitem",
			"harvestcraft:spidereyesoupitem",
			"harvestcraft:splitpeasoupitem",
			"harvestcraft:springrollitem",
			"harvestcraft:starfruitjellysandwichitem",
			"harvestcraft:steakandchipsitem",
			"harvestcraft:steakfajitaitem",
			"harvestcraft:strawberryjellysandwichitem",
			"harvestcraft:stuffedduckitem",
			"harvestcraft:stuffedeggplantitem",
			"harvestcraft:suaderoitem",
			"harvestcraft:sugarcookieitem",
			"harvestcraft:sundayroastitem",
			"harvestcraft:sunflowerbroccolisaladitem",
			"harvestcraft:sunflowerwheatrollsitem",
			"harvestcraft:supremepizzaitem",
			"harvestcraft:surfandturfitem",
			"harvestcraft:sushiitem",
			"harvestcraft:sweetandsourchickenitem",
			"harvestcraft:sweetandsourmeatballsitem",
			"harvestcraft:sweetpotatosouffleitem",
			"harvestcraft:tacoitem",
			"harvestcraft:teriyakichickenitem",
			"harvestcraft:thankfuldinneritem",
			"harvestcraft:toadintheholeitem",
			"harvestcraft:toastedwesternitem",
			"harvestcraft:tomatoherbchickenitem",
			"harvestcraft:tunafishsandwichitem",
			"harvestcraft:tunapotatoitem",
			"harvestcraft:tunasaladitem",
			"harvestcraft:turkishdelightitem",
			"harvestcraft:vindalooitem",
			"harvestcraft:wafflesitem",
			"harvestcraft:walnutraisinbreaditem",
			"harvestcraft:watermelonjellysandwichitem",
			"harvestcraft:weekendpicnicitem",
			"harvestcraft:yorkshirepuddingitem",
			"harvestcraft:zombiejerkyitem",
			"harvestcraft:zucchinibreaditem",
			"harvestcraft:zucchinifriesitem",
			"iceandfire:fire_dragon_flesh",
			"iceandfire:ice_dragon_flesh",
			"minecraft:beef",
			"minecraft:cake",
			"minecraft:chicken",
			"minecraft:cooked_beef",
			"minecraft:cooked_chicken",
			"minecraft:cooked_fish:0",
			"minecraft:cooked_fish:1",
			"minecraft:cooked_mutton",
			"minecraft:cooked_porkchop",
			"minecraft:cooked_rabbit",
			"minecraft:fish:0",
			"minecraft:fish:1",
			"minecraft:fish:2",
			"minecraft:fish:3",
			"minecraft:golden_apple:1",
			"minecraft:mutton",
			"minecraft:porkchop",
			"minecraft:pumpkin_pie",
			"minecraft:rabbit",
			"minecraft:rabbit_stew",
			"mob_mash:cooked_crocoduck",
			"mob_mash:raw_crocoduck",
			"natura:edibles:0",
			"natura:edibles:1",
			"nex:food_meat_ghast_cooked",
			"nex:food_meat_ghast_raw",
			"primal:bat_meat_dried",
			"primal:bear_meat_cooked",
			"primal:bear_meat_dried",
			"primal:bear_meat_raw",
			"primal:bear_meat_rotten",
			"primal:bear_meat_salted",
			"primal:chum",
			"primal:fish_clown_cured",
			"primal:fish_clown_dried",
			"primal:fish_clown_rotten",
			"primal:fish_clown_salted",
			"primal:fish_cod_cured",
			"primal:fish_cod_dried",
			"primal:fish_cod_rotten",
			"primal:fish_cod_salted",
			"primal:fish_lava_crawdad_cured",
			"primal:fish_lava_crawdad_dried",
			"primal:fish_lava_crawdad_rotten",
			"primal:fish_lava_crawdad_salted",
			"primal:fish_lava_worm_cured",
			"primal:fish_lava_worm_dried",
			"primal:fish_lava_worm_raw",
			"primal:fish_lava_worm_rotten",
			"primal:fish_lava_worm_salted",
			"primal:fish_puffer_cured",
			"primal:fish_puffer_dried",
			"primal:fish_puffer_rotten",
			"primal:fish_puffer_salted",
			"primal:fish_salmon_cured",
			"primal:fish_salmon_dried",
			"primal:fish_salmon_rotten",
			"primal:fish_salmon_salted",
			"primal:gator_meat_cooked",
			"primal:gator_meat_cured",
			"primal:gator_meat_raw",
			"primal:gator_meat_rotten",
			"primal:gator_meat_salted",
			"primal:horse_meat_cooked",
			"primal:horse_meat_dried",
			"primal:horse_meat_raw",
			"primal:horse_meat_rotten",
			"primal:llama_meat_charqui",
			"primal:llama_meat_cooked",
			"primal:llama_meat_raw",
			"primal:llama_meat_rotten",
			"primal:llama_meat_salted",
			"primal:ovis_meat_cooked",
			"primal:ovis_meat_dried",
			"primal:ovis_meat_raw",
			"primal:ovis_meat_rotten",
			"primal:pigman_meat_cooked",
			"primal:pigman_meat_cured",
			"primal:pigman_meat_dried",
			"primal:pigman_meat_raw",
			"primal:pigman_meat_rotten",
			"primal:pigman_meat_salted",
			"primal:shark_meat_cooked",
			"primal:shark_meat_cured",
			"primal:shark_meat_dried",
			"primal:shark_meat_raw",
			"primal:shark_meat_rotten",
			"primal:shark_meat_salted",
			"primal:wolf_meat_cooked",
			"primal:wolf_meat_dried",
			"primal:wolf_meat_raw",
			"primal:wolf_meat_rotten",
			"primitivemobs:cooked_dodo",
			"primitivemobs:dodo",
			"realworld:food_almond",
			"realworld:food_brazilnut",
			"realworld:food_butternut",
			"realworld:food_candlenut",
			"realworld:food_cashew",
			"realworld:food_cookie_peanut_butter",
			"realworld:food_corn_tortilla_fish",
			"realworld:food_corn_tortilla_meat",
			"realworld:food_gabonnut",
			"realworld:food_hazelnut",
			"realworld:food_lentils",
			"realworld:food_lentil_soup",
			"realworld:food_macadamianut",
			"realworld:food_mayanut",
			"realworld:food_peanuts",
			"realworld:food_pecan",
			"realworld:food_pistachio",
			"realworld:food_quinoa_cereal",
			"realworld:food_quinoa_seeds",
			"realworld:food_sandwich_fish",
			"realworld:food_sandwich_meat",
			"realworld:food_sandwich_pbj",
			"realworld:food_soybeans",
			"realworld:food_stuffed_pepper_orange",
			"realworld:food_stuffed_pepper_red",
			"realworld:food_stuffed_pepper_yellow",
			"realworld:food_tofu",
			"realworld:food_trail_mix",
			"realworld:food_wrap_corn_fish",
			"realworld:food_wrap_corn_meat",
			"realworld:food_wrap_corn_rice",
			"realworld:food_wrap_seaweed_fish",
			"realworld:food_wrap_seaweed_meat",
			"realworld:food_wrap_seaweed_rice",
			"reptilemod:croc_cooked",
			"reptilemod:croc_raw",
			"reptilemod:megalania_cooked",
			"reptilemod:megalania_raw",
			"reptilemod:reptile_cooked",
			"reptilemod:reptile_raw",
			"reptilemod:turtle_cooked",
			"reptilemod:turtle_raw",
			"saltmod:apple_pie",
			"saltmod:carrot_pie",
			"saltmod:corned_beef",
			"saltmod:escargot",
			"saltmod:fish_pie",
			"saltmod:fish_salmon_pie",
			"saltmod:fish_salmon_soup",
			"saltmod:fish_soup",
			"saltmod:hufc",
			"saltmod:muffin",
			"saltmod:mushroom_pie",
			"saltmod:onion_pie",
			"saltmod:potato_pie",
			"saltmod:saltwort_beef",
			"saltmod:saltwort_mutton",
			"saltmod:saltwort_pie",
			"saltmod:saltwort_porkchop",
			"saltmod:salt_beef_cooked",
			"saltmod:salt_chicken_cooked",
			"saltmod:salt_egg",
			"saltmod:salt_fish_clownfish",
			"saltmod:salt_fish_cod",
			"saltmod:salt_fish_cod_cooked",
			"saltmod:salt_fish_salmon",
			"saltmod:salt_fish_salmon_cooked",
			"saltmod:salt_fish_salmon_soup",
			"saltmod:salt_fish_soup",
			"saltmod:salt_hufc",
			"saltmod:salt_mutton_cooked",
			"saltmod:salt_porkchop_cooked",
			"saltmod:salt_rabbit_cooked",
			"saltmod:salt_rabbit_stew",
			"simplecorn:chickencornchowder",
			"tconstruct:edible:0",
			"tconstruct:edible:3",
			"tconstruct:edible:10",
			"tconstruct:edible:11",
			"tconstruct:edible:12",
			"tconstruct:edible:13",
			"tconstruct:edible:14",
			"tconstruct:edible:15",
			"tconstruct:edible:20",
			"tconstruct:edible:21",
			"tconstruct:edible:22",
			"tconstruct:edible:23",
			"tconstruct:edible:33",
			"thebetweenlands:angler_meat_cooked",
			"thebetweenlands:angler_meat_raw",
			"thebetweenlands:crab_stick",
			"thebetweenlands:frog_legs_cooked",
			"thebetweenlands:frog_legs_raw",
			"thebetweenlands:kraken_calamari",
			"thebetweenlands:kraken_tentacle",
			"thebetweenlands:silt_crab_claw",
			"thebetweenlands:snail_flesh_cooked",
			"thebetweenlands:snail_flesh_raw",
			"twilightforest:cooked_meef",
			"twilightforest:cooked_venison",
			"twilightforest:hydra_chop",
			"twilightforest:meef_stroganoff",
			"twilightforest:raw_meef",
			"twilightforest:raw_venison",
			"vanillafoodpantry:bat_burger",
			"vanillafoodpantry:bat_cheeseburger",
			"vanillafoodpantry:bat_cooked",
			"vanillafoodpantry:bat_raw",
			"vanillafoodpantry:bear_cooked",
			"vanillafoodpantry:bear_raw",
			"vanillafoodpantry:bear_raw_charred",
			"vanillafoodpantry:bear_raw_prepped",
			"vanillafoodpantry:breads:405",
			"vanillafoodpantry:bread_pocket:0",
			"vanillafoodpantry:bread_pocket:1",
			"vanillafoodpantry:bread_pocket:2",
			"vanillafoodpantry:bread_pocket:3",
			"vanillafoodpantry:bread_pocket:4",
			"vanillafoodpantry:cod_salted",
			"vanillafoodpantry:cooked_salt_pork",
			"vanillafoodpantry:dough_ball:7",
			"vanillafoodpantry:dough_ball:9",
			"vanillafoodpantry:earthworms_purged",
			"vanillafoodpantry:egg_pie",
			"vanillafoodpantry:egg_pie:1",
			"vanillafoodpantry:egg_pie:3",
			"vanillafoodpantry:egg_pie:5",
			"vanillafoodpantry:egg_pie:7",
			"vanillafoodpantry:fish_chowder",
			"vanillafoodpantry:fish_pie",
			"vanillafoodpantry:fried_egg",
			"vanillafoodpantry:fried_egg_and_tatoes",
			"vanillafoodpantry:fried_egg_sandwich",
			"vanillafoodpantry:ham_egg_sandwich",
			"vanillafoodpantry:ham_hocks_stew",
			"vanillafoodpantry:horse_cooked",
			"vanillafoodpantry:horse_raw",
			"vanillafoodpantry:jerky",
			"vanillafoodpantry:kebab:0",
			"vanillafoodpantry:kebab:1",
			"vanillafoodpantry:kebab:2",
			"vanillafoodpantry:kebab:3",
			"vanillafoodpantry:kebab:4",
			"vanillafoodpantry:kebab:5",
			"vanillafoodpantry:kebab:10",
			"vanillafoodpantry:kebab:11",
			"vanillafoodpantry:kebab:12",
			"vanillafoodpantry:kebab:13",
			"vanillafoodpantry:llama_cooked",
			"vanillafoodpantry:llama_raw",
			"vanillafoodpantry:muffins:402",
			"vanillafoodpantry:muffins:404",
			"vanillafoodpantry:muffins:406",
			"vanillafoodpantry:muscle_egg",
			"vanillafoodpantry:nuggets",
			"vanillafoodpantry:nuggets:12",
			"vanillafoodpantry:nuggets:13",
			"vanillafoodpantry:nuggets:17",
			"vanillafoodpantry:nuggets:24",
			"vanillafoodpantry:nuggets:25",
			"vanillafoodpantry:nuggets:26",
			"vanillafoodpantry:nuggets:27",
			"vanillafoodpantry:nuggets:29",
			"vanillafoodpantry:nuggets:36",
			"vanillafoodpantry:nuggets:37",
			"vanillafoodpantry:nuggets:38",
			"vanillafoodpantry:nuggets:39",
			"vanillafoodpantry:nuggets:41",
			"vanillafoodpantry:nuggets:72",
			"vanillafoodpantry:nuggets:73",
			"vanillafoodpantry:nuggets:77",
			"vanillafoodpantry:pork_meat_product:0",
			"vanillafoodpantry:pork_meat_product:1",
			"vanillafoodpantry:pork_meat_product:2",
			"vanillafoodpantry:pork_meat_product:3",
			"vanillafoodpantry:pork_meat_product:4",
			"vanillafoodpantry:pork_meat_product:5",
			"vanillafoodpantry:pork_meat_product:6",
			"vanillafoodpantry:portion_ham",
			"vanillafoodpantry:portion_jerky",
			"vanillafoodpantry:potato_chowder",
			"vanillafoodpantry:salt_pork",
			"vanillafoodpantry:sandwich:0",
			"vanillafoodpantry:sandwich:1",
			"vanillafoodpantry:sanitized_flesh:0",
			"vanillafoodpantry:sanitized_flesh:1",
			"vanillafoodpantry:sanitized_flesh:2",
			"vanillafoodpantry:squidd_cooked",
			"vanillafoodpantry:squidd_on_a_stick",
			"vanillafoodpantry:squidd_raw",
			"vanillafoodpantry:steamed_egg",
			"vanillafoodpantry:stewed:0",
			"vanillafoodpantry:stewed:1",
			"vanillafoodpantry:stewed:5",
			"vanillafoodpantry:stewed:6",
			"vanillafoodpantry:stewed:15",
			"vanillafoodpantry:stewed:30",
			"vanillafoodpantry:stewed:31",
			"vanillafoodpantry:stewed:40",
			"vanillafoodpantry:stewed:45",
			"vanillafoodpantry:tatoes:4",
			"vanillafoodpantry:tatoes:6",
			"vanillafoodpantry:tatoes:7",
			"vanillafoodpantry:tatoes:8",
			"vanillafoodpantry:tatoes:9",
			"vanillafoodpantry:wolf_cooked",
			"vanillafoodpantry:wolf_raw",
			"vanillafoodpantry:wrapped_egg",
			"<arcticmobs:yetimeatcooked>",
"<shadowmobs:chupacabrameatcooked>",
"<junglemobs:concapedemeatcooked>",
"<mountainmobs:yalemeatcooked>",
"<plainsmobs:makameatcooked>",
"<demonmobs:pinkymeatcooked>",
"<desertmobs:joustmeatcooked>",
"<swampmobs:aspidmeatcooked>",
"<forestmobs:arisaurmeatcooked>",
"<infernomobs:searingtaco>",
"<lycanitesmobs:battleburrito>",
"<lycanitesmobs:explorersrisotto>",
"<swampmobs:mosspie>",
"<plainsmobs:bulwarkburger>",
"<mountainmobs:peakskebab>",
"<freshwatermobs:lapisfishandchip>",
"<shadowmobs:bloodchili>"

		]
	}
}
