{
    "DialogShowWheel": 0b,
    "AvailabilityQuestId": 3,
    "Options": [
    ],
    "AvailabilityScoreboardType": 0,
    "DialogHideNPC": 0b,
    "AvailabilityFactionStance": 0,
    "AvailabilityScoreboard2Value": 0,
    "DialogId": 35,
    "AvailabilityQuest": 2,
    "AvailabilityDialog4": 0,
    "AvailabilityScoreboardObjective": "",
    "AvailabilityDialog3": 0,
    "AvailabilityQuest2": 0,
    "AvailabilityQuest3": 0,
    "AvailabilityScoreboard2Objective": "",
    "AvailabilityQuest4": 0,
    "ModRev": 18,
    "DecreaseFaction1Points": 0b,
    "DialogQuest": 3,
    "AvailabilityDialog2": 0,
    "OptionFactions1": -1,
    "AvailabilityDayTime": 0,
    "OptionFactions2": -1,
    "AvailabilityFaction2Id": -1,
    "OptionFaction1Points": 2500,
    "AvailabilityScoreboardValue": 0,
    "DialogDisableEsc": 0b,
    "AvailabilityFaction": 1,
    "DialogTitle": "Blackrep",
    "AvailabilityDialog": 0,
    "AvailabilityScoreboard2Type": 0,
    "AvailabilityFaction2": 0,
    "DialogSound": "mikedongles:mlg",
    "AvailabilityFactionId": 4,
    "AvailabilityFaction2Stance": 0,
    "DialogCommand": "",
    "AvailabilityDialogId": -1,
    "OptionFaction2Points": 100,
    "DialogText": "You have finally achieved the rank of Friendly status with the ITM.  You may now partake in trading with the black market upstairs in the main ITM building.",
    "AvailabilityQuest4Id": -1,
    "AvailabilityQuest3Id": -1,
    "AvailabilityQuest2Id": -1,
    "AvailabilityDialog2Id": -1,
    "AvailabilityDialog3Id": -1,
    "AvailabilityDialog4Id": -1,
    "AvailabilityMinPlayerLevel": 0,
    "DecreaseFaction2Points": 0b,
    "DialogMail": {
        "Sender": "",
        "BeenRead": 0b,
        "Message": {
        },
        "MailItems": [
        ],
        "MailQuest": -1,
        "TimePast": 1546128340309L,
        "Time": 0L,
        "Subject": ""
    }
}
