{
    "ReturnToStart": 1b,
    "NpcInv": [
    ],
    "BossColor": 0,
    "PotionEffect": 0,
    "Size": 5,
    "stopAndInteract": 1b,
    "Resistances": {
        "Arrow": 2.0f,
        "Explosion": 2.0f,
        "Knockback": 2.0f,
        "Melee": 2.0f
    },
    "BossBar": 0b,
    "RespawnTime": 20,
    "NpcAngrySound": "",
    "ReactsToFire": 0b,
    "IgnoreCobweb": 0b,
    "PositionOffsetZ": 5.0f,
    "PositionOffsetY": 5.0f,
    "PositionOffsetX": 5.0f,
    "LootMode": 0,
    "TransformHasAI": 0b,
    "AttackStrenght": 5,
    "PersistenceRequired": 0b,
    "id": "customnpcs:customnpc",
    "MovingPatern": 0,
    "NpcLines": {
        "Lines": [
        ]
    },
    "DefendFaction": 0b,
    "FireIndirect": 0,
    "NpcVisible": 0,
    "LinkedNpcName": "",
    "NpcScenes": {
        "Scenes": [
        ]
    },
    "HitSound": "minecraft:entity.arrow.hit",
    "FindShelter": 2,
    "Air": 300s,
    "TacticalVariant": 0,
    "Orientation": 0,
    "ScriptLanguage": "ECMAScript",
    "HandItems": [
        {
        },
        {
        }
    ],
    "KnockBack": 0,
    "TransformHasJob": 0b,
    "ArmorDropChances": [
        0.085f,
        0.085f,
        0.085f,
        0.085f
    ],
    "BurnInSun": 0b,
    "TraderSold": {
        "NpcMiscInv": [
            {
                "Slot": 0b,
                "ForgeCaps": {
                    "customnpcs:itemscripteddata": {
                    }
                },
                "id": "industrialforegoing:animal_growth_increaser",
                "Count": 1b,
                "Damage": 0s
            },
            {
                "Slot": 1b,
                "ForgeCaps": {
                    "customnpcs:itemscripteddata": {
                    }
                },
                "id": "industrialforegoing:sludge_refiner",
                "Count": 1b,
                "Damage": 0s
            },
            {
                "Slot": 2b,
                "ForgeCaps": {
                    "customnpcs:itemscripteddata": {
                    }
                },
                "id": "immersiveengineering:metal_device1",
                "Count": 1b,
                "Damage": 13s
            },
            {
                "Slot": 3b,
                "ForgeCaps": {
                    "customnpcs:itemscripteddata": {
                    }
                },
                "id": "industrialforegoing:animal_independence_selector",
                "Count": 1b,
                "Damage": 0s
            },
            {
                "Slot": 4b,
                "ForgeCaps": {
                    "customnpcs:itemscripteddata": {
                    }
                },
                "id": "industrialforegoing:animal_byproduct_recolector",
                "Count": 1b,
                "Damage": 0s
            },
            {
                "Slot": 6b,
                "ForgeCaps": {
                    "customnpcs:itemscripteddata": {
                    }
                },
                "id": "industrialforegoing:animal_stock_increaser",
                "Count": 1b,
                "Damage": 0s
            },
            {
                "Slot": 7b,
                "ForgeCaps": {
                    "customnpcs:itemscripteddata": {
                    }
                },
                "id": "industrialforegoing:sewage_composter_solidifier",
                "Count": 1b,
                "Damage": 0s
            },
            {
                "Slot": 8b,
                "ForgeCaps": {
                    "customnpcs:itemscripteddata": {
                    }
                },
                "id": "bonsaitrees:bonsaipot",
                "Count": 1b,
                "Damage": 1s
            },
            {
                "Slot": 9b,
                "ForgeCaps": {
                    "customnpcs:itemscripteddata": {
                    }
                },
                "id": "industrialforegoing:crop_sower",
                "Count": 1b,
                "Damage": 0s
            },
            {
                "Slot": 10b,
                "ForgeCaps": {
                    "customnpcs:itemscripteddata": {
                    }
                },
                "id": "industrialforegoing:crop_enrich_material_injector",
                "Count": 1b,
                "Damage": 0s
            },
            {
                "Slot": 11b,
                "ForgeCaps": {
                    "customnpcs:itemscripteddata": {
                    }
                },
                "id": "bonsaitrees:bonsaipot",
                "Count": 1b,
                "Damage": 0s
            },
            {
                "Slot": 12b,
                "ForgeCaps": {
                    "customnpcs:itemscripteddata": {
                    }
                },
                "id": "industrialforegoing:plant_interactor",
                "Count": 1b,
                "Damage": 0s
            },
            {
                "Slot": 15b,
                "ForgeCaps": {
                    "customnpcs:itemscripteddata": {
                    }
                },
                "id": "industrialforegoing:sludge_refiner",
                "Count": 1b,
                "Damage": 0s
            }
        ]
    },
    "StandingState": 2,
    "AttackInvisible": 0b,
    "NpcInteractNPCLines": {
        "Lines": [
        ]
    },
    "HurtTime": 0s,
    "WalkingRange": 10,
    "ShotCount": 1,
    "pDur": 5,
    "TraderIgnoreDamage": 0b,
    "AttackRange": 2,
    "NpcKillLines": {
        "Lines": [
        ]
    },
    "PotionImmune": 1b,
    "AvoidsSun": 0b,
    "Texture": "customnpcs:textures/entity/orcmale/genericorc1.png",
    "NpcJob": 0,
    "BurstCount": 1,
    "NpcAttackLines": {
        "Lines": [
        ]
    },
    "pSpeed": 10,
    "pArea": 0,
    "DeathTime": 0s,
    "pImpact": 0,
    "MoveState": 0,
    "pRender3D": 1b,
    "Motion": [
        0.0d,
        -0.0784000015258789d,
        0.0d
    ],
    "CombatRegen": 0,
    "NpcsTimers": [
    ],
    "pEffect": 0,
    "DistanceToMelee": 0,
    "NpcStepSound": "",
    "FireRate": 5,
    "LeftHanded": 0b,
    "pEffAmp": 0,
    "OnGround": 1b,
    "Dimension": 0,
    "ImmuneToFire": 1b,
    "NpcKilledLines": {
        "Lines": [
        ]
    },
    "TraderMarket": "",
    "Fire": -1s,
    "ArmorItems": [
        {
        },
        {
        },
        {
        },
        {
        }
    ],
    "DisablePitch": 0b,
    "pPhysics": 1b,
    "TransformHasInv": 0b,
    "NpcInteractLines": {
        "Lines": [
            {
                "Line": "Welcome @p ",
                "Song": "",
                "Slot": 0
            }
        ]
    },
    "HurtByTimestamp": 21031,
    "TraderCurrency": {
        "NpcMiscInv": [
            {
                "Slot": 0b,
                "ForgeCaps": {
                    "customnpcs:itemscripteddata": {
                    }
                },
                "id": "economy:item_twohundreedb",
                "Count": 1b,
                "Damage": 0s
            },
            {
                "Slot": 1b,
                "ForgeCaps": {
                    "customnpcs:itemscripteddata": {
                    }
                },
                "id": "economy:item_twohundreedb",
                "Count": 1b,
                "Damage": 0s
            },
            {
                "Slot": 2b,
                "ForgeCaps": {
                    "customnpcs:itemscripteddata": {
                    }
                },
                "id": "economy:item_fivehundreedb",
                "Count": 4b,
                "Damage": 0s
            },
            {
                "Slot": 3b,
                "ForgeCaps": {
                    "customnpcs:itemscripteddata": {
                    }
                },
                "id": "economy:item_twohundreedb",
                "Count": 1b,
                "Damage": 0s
            },
            {
                "Slot": 4b,
                "ForgeCaps": {
                    "customnpcs:itemscripteddata": {
                    }
                },
                "id": "economy:item_twohundreedb",
                "Count": 1b,
                "Damage": 0s
            },
            {
                "Slot": 6b,
                "ForgeCaps": {
                    "customnpcs:itemscripteddata": {
                    }
                },
                "id": "economy:item_twohundreedb",
                "Count": 1b,
                "Damage": 0s
            },
            {
                "Slot": 7b,
                "ForgeCaps": {
                    "customnpcs:itemscripteddata": {
                    }
                },
                "id": "economy:item_twohundreedb",
                "Count": 1b,
                "Damage": 0s
            },
            {
                "Slot": 8b,
                "ForgeCaps": {
                    "customnpcs:itemscripteddata": {
                    }
                },
                "id": "economy:item_fivehundreedb",
                "Count": 2b,
                "Damage": 0s
            },
            {
                "Slot": 9b,
                "ForgeCaps": {
                    "customnpcs:itemscripteddata": {
                    }
                },
                "id": "economy:item_twohundreedb",
                "Count": 1b,
                "Damage": 0s
            },
            {
                "Slot": 10b,
                "ForgeCaps": {
                    "customnpcs:itemscripteddata": {
                    }
                },
                "id": "economy:item_twohundreedb",
                "Count": 1b,
                "Damage": 0s
            },
            {
                "Slot": 11b,
                "ForgeCaps": {
                    "customnpcs:itemscripteddata": {
                    }
                },
                "id": "economy:item_twohundreedb",
                "Count": 1b,
                "Damage": 0s
            },
            {
                "Slot": 12b,
                "ForgeCaps": {
                    "customnpcs:itemscripteddata": {
                    }
                },
                "id": "economy:item_twohundreedb",
                "Count": 1b,
                "Damage": 0s
            },
            {
                "Slot": 15b,
                "ForgeCaps": {
                    "customnpcs:itemscripteddata": {
                    }
                },
                "id": "economy:item_twohundreedb",
                "Count": 1b,
                "Damage": 0s
            }
        ]
    },
    "pSpin": 0b,
    "NpcHurtSound": "minecraft:entity.player.hurt",
    "pTrail": 0,
    "CreatureType": 0,
    "Attributes": [
        {
            "Base": -2.0d,
            "Name": "tc.mobmod"
        },
        {
            "Base": 0.0d,
            "Name": "tc.mobmodtaint"
        },
        {
            "Base": 20.0d,
            "Modifiers": [
                {
                    "UUIDMost": -4557935957806527035L,
                    "UUIDLeast": -4950522221421205810L,
                    "Amount": 0.5132217407226562d,
                    "Operation": 1,
                    "Name": "ScalingHealth.HealthModifier"
                }
            ],
            "Name": "generic.maxHealth"
        },
        {
            "Base": 0.0d,
            "Name": "generic.knockbackResistance"
        },
        {
            "Base": 0.25d,
            "Name": "generic.movementSpeed"
        },
        {
            "Base": 0.0d,
            "Name": "generic.armor"
        },
        {
            "Base": 0.0d,
            "Name": "generic.armorToughness"
        },
        {
            "Base": 1.0d,
            "Name": "forge.swimSpeed"
        },
        {
            "Base": 56.0d,
            "Name": "generic.followRange"
        },
        {
            "Base": 5.0d,
            "Modifiers": [
                {
                    "UUIDMost": -3218372695593237220L,
                    "UUIDLeast": -8743736172551149415L,
                    "Amount": 6.117405891418457d,
                    "Operation": 0,
                    "Name": "ScalingHealth.DamageModifier"
                }
            ],
            "Name": "generic.attackDamage"
        },
        {
            "Base": 2.5d,
            "Name": "generic.flyingSpeed"
        }
    ],
    "Invulnerable": 0b,
    "TransformHasDisplay": 0b,
    "NoFallDamage": 1b,
    "AbsorptionAmount": 0.0f,
    "TransformHasRole": 0b,
    "Name": "Satariel",
    "FallDistance": 0.0f,
    "SkinColor": 16777215,
    "NpcIdleSound": "",
    "Weapons": [
    ],
    "NPCDialogOptions": [
    ],
    "AggroRange": 16,
    "DirectLOS": 1b,
    "HealthRegen": 1,
    "ForgeCaps": {
        "epicsiegemod:modified_handler": {
            "data": {
            },
            "modified": 0b
        },
        "enderutilities:entity_portal_cooldown": {
            "LastInPortal": 0L
        }
    },
    "HandDropChances": [
        0.085f,
        0.085f
    ],
    "NpcModelData": {
        "LegsConfig": {
            "NotShared": 0b,
            "ScaleZ": 1.0f,
            "TransZ": 0.0f,
            "TransY": 0.0f,
            "TransX": 0.012000002f,
            "ScaleY": 1.0f,
            "ScaleX": 1.0f
        },
        "BodyConfig": {
            "NotShared": 0b,
            "ScaleZ": 1.0f,
            "TransZ": 0.0f,
            "TransY": 0.0f,
            "TransX": 0.0f,
            "ScaleY": 1.0f,
            "ScaleX": 1.0f
        },
        "Eyes": {
            "Pattern": 0b,
            "Glint": 1b,
            "Type": 0b,
            "PositionY": 1,
            "SkinColor": 11830381,
            "PlayerTexture": 0b,
            "Color": 14188339,
            "BrowColor": 5982516,
            "BrowThickness": 4
        },
        "LegParts": {
            "Pattern": 0b,
            "Type": 0b,
            "PlayerTexture": 0b,
            "Color": 16777215
        },
        "Parts": [
        ],
        "ArmsConfig": {
            "NotShared": 0b,
            "ScaleZ": 1.0f,
            "TransZ": 0.0f,
            "TransY": 0.0f,
            "TransX": -0.0f,
            "ScaleY": 1.0f,
            "ScaleX": 1.0f
        },
        "ExtraData": {
        },
        "HeadConfig": {
            "NotShared": 0b,
            "ScaleZ": 1.0f,
            "TransZ": 0.0f,
            "TransY": 0.0f,
            "TransX": 0.0f,
            "ScaleY": 1.0f,
            "ScaleX": 1.0f
        }
    },
    "minDelay": 20,
    "DoorInteract": 2,
    "MoveSpeed": 5,
    "TransformEditingModus": 0b,
    "UsingSkinUrl": 0b,
    "Leashed": 0b,
    "SkinUrl": "",
    "CanSwim": 1b,
    "TraderIgnoreNBT": 0b,
    "GroundSound": "minecraft:block.stone.break",
    "MaxHealth": 20,
    "HideBodyWhenKilled": 0b,
    "AttackSpeed": 20,
    "PotionDuration": 5,
    "maxDelay": 40,
    "ScriptEnabled": 0b,
    "Role": 1,
    "DropChance": [
        {
            "Integer": 100,
            "Slot": 0
        },
        {
            "Integer": 100,
            "Slot": 1
        },
        {
            "Integer": 100,
            "Slot": 2
        },
        {
            "Integer": 100,
            "Slot": 3
        },
        {
            "Integer": 100,
            "Slot": 4
        },
        {
            "Integer": 100,
            "Slot": 5
        },
        {
            "Integer": 100,
            "Slot": 6
        },
        {
            "Integer": 100,
            "Slot": 7
        },
        {
            "Integer": 100,
            "Slot": 8
        }
    ],
    "FactionPoints": {
        "DecreaseFaction1Points": 0b,
        "OptionFaction2Points": 100,
        "OptionFactions1": -1,
        "OptionFactions2": -1,
        "OptionFaction1Points": 100,
        "DecreaseFaction2Points": 0b
    },
    "pDamage": 4,
    "KilledTime": 0L,
    "AimWhileShooting": 0b,
    "CanPickUpLoot": 0b,
    "AttackOtherFactions": 0b,
    "CanDrown": 0b,
    "pSize": 5,
    "CanSprint": 0b,
    "CanLeap": 0b,
    "TransformIsActive": 0b,
    "ForgeData": {
        "cnpcmarkdata": {
            "marks": [
            ]
        },
        "scalinghealth:difficulty": 29s
    },
    "MovingState": 0,
    "MovingPos": 0,
    "PotionAmp": 0,
    "OnAttack": 0,
    "TacticalRadius": 8,
    "FallFlying": 0b,
    "MaxExp": 0,
    "OrderedLines": 0b,
    "PortalCooldown": 0,
    "pGlows": 0b,
    "TransformHasAdvanced": 0b,
    "TransformHasStats": 0b,
    "MovementType": 0,
    "FiringSound": "minecraft:entity.arrow.shoot",
    "ModRev": 18,
    "Accuracy": 60,
    "MinExp": 0,
    "Armor": [
        {
            "Slot": 1b,
            "ForgeCaps": {
                "customnpcs:itemscripteddata": {
                }
            },
            "id": "variedcommodities:nanorum_chest",
            "Count": 1b,
            "Damage": 0s
        },
        {
            "Slot": 2b,
            "ForgeCaps": {
                "customnpcs:itemscripteddata": {
                }
            },
            "id": "variedcommodities:full_wooden_legs",
            "Count": 1b,
            "Damage": 0s
        },
        {
            "Slot": 3b,
            "ForgeCaps": {
                "customnpcs:itemscripteddata": {
                }
            },
            "id": "variedcommodities:full_wooden_boots",
            "Count": 1b,
            "Damage": 0s
        }
    ],
    "CloakTexture": "",
    "GlowTexture": "",
    "MaxFiringRange": 15,
    "pXlr8": 0b,
    "Scripts": [
    ],
    "Health": 30.264435f,
    "pStick": 0b,
    "MovingPause": 1b,
    "NpcDeathSound": "minecraft:entity.player.hurt",
    "FactionID": 4,
    "Title": "Farm Equipment",
    "TotalTicksAlive": 2650590L,
    "Rotation": [
        278.69794f,
        1.7373848f
    ],
    "ShowName": 0,
    "npcInteracting": 1b,
    "UpdateBlocked": 0b,
    "AvoidsWater": 0b,
    "NoLivingAnimation": 0b,
    "SpawnCycle": 0
}
